{
	"title": "Agua turbia",
		"assetBundle": "aguaturbia_spanish",

	"level": 5,
	"description": "Nuestro aventurero ya sorprendió a todos por haber superado el primer desafío. Los soldados están seguros de que esta vez no tendrá tanta suerte y le presentan la segunda prueba.",
    "author": "OX",
	"illustrator": {
	    "firstname": "OX",
	    "lastname": "",
	    "contactForms": [ "", "" ]
	},
	"estimatedTime": "30",
    "pages": [
        {
            "pageType": 0,
            "image": "AguaTurbia 00"
        },
        {
            "pageType": 1,
            "text": "Por segunda vez me presenté ante los soldados del rey gnomo y les solicité que me leyeran del gran tomo de los desafíos la siguiente prueba. Ellos no podían dejar de mirarme, no comprendían cómo había logrado obtener los pelos del oso más maloso, pero eso ya era cuestión del pasado. Tenía cuatro desafíos más por delante.",
            "specialWords": [
                {
                    "wordInText": "tomo",
                    "genericWord": "Tomo",
                    "description": "Obra escrita y/o ilustrada que forma parte de una colección de libros."
                },
                {
                    "wordInText": "comprendían",
                    "genericWord": "Comprender",
                    "description": "Entender o encontrar justificación para algo."
                }
            ],          
            "audio": ""
        },
        {
            "pageType": 5,
            "text": "Uno de ellos tomó el libro mientras que el otro se alistó y comenzó a leer: —Segundo desafío del Rey Gnomo: agua turbia. Quienquiera reunirse en una cena con el rey de los gnomos, deberá cruzar el río más turbio y caudaloso de todo el bosque, y traer el fruto del Araucán Milenario antes que la luna se vea en la cima del cielo —dijo el soldado. Suspiré aliviado, si había sobrevivido a un encuentro cercano con un oso, ¿qué tan difícil sería cruzar un río? Le solicité a los soldados las indicaciones necesarias para llegar al Araucán Milenario y salí en busca del mismo.",
            "hint": [ "Quienquiera reunirse en una cena con el rey de los gnomos, deberá cruzar el río más turbio y caudaloso de todo el bosque, y traer el fruto del Araucán Milenario antes que la luna se vea en la cima del cielo" ],
            "specialWords": [
                {
                    "wordInText": "alistó",
                    "genericWord": "Alistar",
                    "description": "Prepararse. Estar listo para hacer algo."
                },
                {
                    "wordInText": "turbio",
                    "genericWord": "Turbio",
                    "description": "Revuelto, turbulento. Oscurecido de modo que pierde claridad o transparencia."
                },
                {
                    "wordInText": "caudaloso",
                    "genericWord": "Caudaloso",
                    "description": "Que tiene una gran cantidad de agua."
                }
            ],
            "question": "¿En qué consistía el segundo desafío?",
            "options": [
                {
                    "isCorrect": true,
                    "text": "En traer el fruto de un árbol antes de que sea totalmente de noche"
                },
                {
                    "isCorrect": false,
                    "text": "En encontrar un árbol y comer su fruto"
                },
                {
                    "isCorrect": false,
                    "text": "En cruzar un río y obtener el fruto de un árbol para el mediodía"
                }
            ],
            "audio": ""
        },
        {
            "pageType": 2,
            "text": "No necesité caminar mucho para comenzar a escuchar el rugido del río. Lo único que tuve que hacer fue seguir su temible sonido. A medida que me acercaba, ese ruido ensordecedor se hacía cada vez más fuerte. Al salir del bosque comprendí lo complejo que iba a ser superar el desafío. Podía ignorar el terrible ruido que el río hacía, pero lo que no podía ignorar era la cantidad de agua que, con terrible fuerza, me separaba del árbol.",
            "image": "AguaTurbia 01",
            "specialWords": [
                {
                    "wordInText": "rugido",
                    "genericWord": "Rugido",
                    "description": "Sonido muy fuerte que hace un animal."
                },
                {
                    "wordInText": "ensordecedor",
                    "genericWord": "Ensordecedor",
                    "description": "Sonido muy intenso."
                }
            ],
            "audio": ""
        },
        {
            "pageType": 5,
            "text": "No era demasiado ancho pero lo suficiente como para saber que no sería fácil llegar al otro lado. Me bastó usar una rama y una piedra para darme cuenta que no sólo era imposible cruzarlo caminando sino también nadando. Su caudal y profundidad me asustaban mucho. Si me hubiera metido directamente, me habría arrastrado por kilómetros e incluso me habría ahogado antes de poder reaccionar.",
            "hint": [ "Me bastó usar una rama y una piedra para darme cuenta que no sólo era imposible cruzarlo caminando sino también nadando. Su caudal y profundidad me asustaban mucho." ],
            "specialWords": [
                {
                    "wordInText": "bastó",
                    "genericWord": "Bastar",
                    "description": "Ser suficiente, alcanzar."
                }
            ],
            "question": "¿Para qué usó la piedra?",
            "options": [
                {
                    "isCorrect": true,
                    "text": "Para ver qué tan profundo era el río"
                },
                {
                    "isCorrect": false,
                    "text": "Para ver qué tan ancho era el río"
                },
                {
                    "isCorrect": false,
                    "text": "Para jugar con el agua que corría"
                }
            ],
            "audio": "8text"
        },
        {
            "pageType": 5,
            "text": "Descartado el plan original, se me ocurrió aplicar mis conocimientos. Todo río tiene un origen, un punto donde comienza, la naciente. Si lograba encontrarla, el río no sería más que un arroyo y no habría problema en cruzarlo. Tan sólo necesitaba saber dónde estaba. Con determinación, comencé a caminar cuesta arriba, consciente de que el tiempo jugaba en mi contra.",
            "hint": [ "Con determinación, comencé a caminar cuesta arriba, consciente de que el tiempo jugaba en mi contra." ],
            "specialWords": [
                {
                    "wordInText": "naciente.",
                    "genericWord": "Naciente",
                    "description": "Lugar donde se origina el río."
                },
                {
                    "wordInText": "determinación,",
                    "genericWord": "Determinación",
                    "description": "Con decisión y seguridad."
                }
            ],
            "question": "¿Por qué el tiempo jugaba en su contra?",
            "options": [
                {
                    "isCorrect": true,
                    "text": "Porque no tenía mucho tiempo para encontrar el fruto y entregarlo a los gnomos"
                },
                {
                    "isCorrect": false,
                    "text": "Porque no quería que él llegara al Araucan Milenario para poder comer del fruto"
                },
                {
                    "isCorrect": false,
                    "text": "Porque le iba a dar sueño y se tendría que ir a dormir"
                }
            ],
            "audio": "9text"
        },
        {
            "pageType": 5,
            "text": "El día pasaba y mi temor de que anochezca y de que la luna se vea en la cima del cielo iba en aumento. El camino se fue poniendo cada vez más empinado pero el río no mostraba señales de perder fuerza ni disminuir su caudal. A medida que el sol comenzaba a bajar, con él se iban mis esperanzas de llegar a tiempo. No sólo debía cruzar el río sino también volver al punto donde había visto el Araucán y llevar su fruto a los soldados.",
            "hint": [ "A medida que el sol comenzaba a bajar, con él se iban mis esperanzas de llegar a tiempo. No sólo debía cruzar el río sino también volver al punto donde había visto el Araucán y llevar su fruto a los soldados." ],
            "specialWords": [
                {
                    "wordInText": "empinado",
                    "genericWord": "Empinado",
                    "description": "Que tiene una pendiente muy pronunciada."
                }
            ],
            "question": "¿Por qué sus esperanzas se iban con el sol?",
            "options": [
                {
                    "isCorrect": true,
                    "text": "Porque el sol bajando significaba que se estaba quedando sin tiempo"
                },
                {
                    "isCorrect": false,
                    "text": "Porque el sol bajando significaba que no iba a poder ver bien"
                },
                {
                    "isCorrect": false,
                    "text": "Porque el sol bajando significaba que estaba llegando a la naciente del ríos"
                }
            ],
            "audio": "9text"
        },
        {
            "pageType": 5,
            "text": "Cansado y angustiado, acepté lo inevitable. No iba a poder cruzar el río a tiempo. Decidí sentarme debajo de un árbol a descansar y pensar cómo podía resolver el desafío… no iba a darme por vencido. La respuesta llegó con el canto de una cotorra y una sorpresa poco agradable que aterrizó en mi cabeza. Levanté la vista y ví cientos de cotorras posadas en el árbol. Todas me miraban atentamente.",
            "hint": [ "La respuesta llegó con el canto de una cotorra y una sorpresa poco agradable que aterrizó en mi cabeza." ],
            "specialWords": [
                {
                    "wordInText": "angustiado,",
                    "genericWord": "Agustiar",
                    "description": "Afligirse, ponerse muy triste."
                }
            ],
            "question": "¿Cuál fue la sorpresa?",
            "options": [
                {
                    "isCorrect": true,
                    "text": "El excremento de cotorra que aterrizó en su cabeza"
                },
                {
                    "isCorrect": false,
                    "text": "Una cotorra que cantaba mal y lo despertó"
                },
                {
                    "isCorrect": false,
                    "text": "Darse cuenta que no había forma de que llegara a cumplir el desafío a tiempo"
                }
            ],
            "audio": "9text"
        },
        {
            "pageType": 3,
            "image": "AguaTurbia 02",
            "audio": "9text"
        },
        {
            "pageType": 1,
            "text": "La idea no fue mía, fue de las cotorras. Al ver esa cantidad de pájaros posados, sólo pude pensar en una cosa. Tomé una soga que tenía y comencé a armar pequeños lazos. Al poco tiempo tenía más de cien nudos listos. Llegó entonces la parte difícil: enlazar a las cotorras. ¡SWIFF! ¡SLASHH! ¡PRRR!, alcanzar estos pájaros resultó ser más difícil de lo que me había imaginado. Y a pesar de que iba mejorando, ya había pasado más de una hora y tan sólo había logrado alcanzar 5 o 6 cotorras.",
            "specialWords": [
                {
                    "wordInText": "lazos.",
                    "genericWord": "Lazo",
                    "description": "Cuerda con un nudo corredizo en uno de sus extremos utilizado generalmente para sujetar ganado."
                }
            ],
            "audio": ""
        },
        {
            "pageType": 5,
            "text": "No iba a darme por vencido tan fácilmente por lo que comencé a silbar para motivarme y seguí lanzando la cuerda. Fue en ese preciso instante que pasó algo impensado. Las cotorras se acercaron solas y acomodaron sus patitas en los lazos. Decenas de cotorras se ubicaron en los espacios y me miraron expectantes.",
            "specialWords": [
                {
                    "wordInText": "expectantes.",
                    "genericWord": "Expectante",
                    "description": "Que espera con curiosidad un acontecimiento o suceso."
                }
            ],
            "question": "¿Qué fue lo que hizo cambiar de actitud a las cotorras?",
            "options": [
                {
                    "isCorrect": true,
                    "text": "Su silbido"
                },
                {
                    "isCorrect": false,
                    "text": "Su destreza con el lazo"
                },
                {
                    "isCorrect": false,
                    "text": "Que ya era prácticamente de noche"
                }
            ],
            "hint": [ "No iba a darme por vencido tan fácilmente por lo que comencé a silbar para motivarme y seguí lanzando la cuerda. Fue en ese preciso instante que pasó algo impensado." ],
            "audio": "9text"
        },
        {
            "pageType": 1,
            "text": "Sin dudarlo, ajusté los nudos y tomé la soga con mis dos manos. Sin aviso previo, las cotorras comenzaron a entonar una canción y juntas volaron en sintonía con su canto. Me elevaron del suelo sin aparente esfuerzo, ¡y yo ví, incrédulo, cómo comencé a volar! Unas cien cotorras me llevaban por los aires al otro lado del río.",
            "specialWords": [
                {
                    "wordInText": "entonar",
                    "genericWord": "Entonar",
                    "description": "Empezar a cantar de modo que el resto lo siga."
                },
                {
                    "wordInText": "sintonía",
                    "genericWord": "Sintonía",
                    "description": "En el mismo tono, en armonía, de forma sincronizada."
                }
            ],
            "audio": "9text"
        },
        {
            "pageType": 1,
            "text": "Al poco tiempo entendí cómo comunicarme con ellas. Un tironcito las hacía virar a la izquierda y un doble tironcito las hacía girar hacia la derecha. Llegar al árbol tomó tan sólo unos minutos y sentí sanos celos de las cotorras por su capacidad de volar.",
            "specialWords": [
                {
                    "wordInText": "virar",
                    "genericWord": "Virar",
                    "description": "Girar, cambiar de dirección."
                },
                {
                    "wordInText": "celos",
                    "genericWord": "Celos",
                    "description": "Inquietud, envidia. Querer tener algo que otro tiene."
                }
            ],
            "audio": "9text"
        },
        {
            "pageType": 2,
            "text": "Con cuidado me depositaron en el suelo y se posaron en el Araucán Milenario. Del otro lado del río se lo veía grande, pero de este lado se podía observar su majestuosidad aún más. Un árbol verdaderamente hermoso. Era tupido y sus brazos eran extensos, tanto que no se podía ver su tronco.",
            "image": "AguaTurbia 03",
            "specialWords": [
                {
                    "wordInText": "posaron",
                    "genericWord": "Posar",
                    "description": "Ubicarse, depositarse con cuidado."
                },
                {
                    "wordInText": "majestuosidad",
                    "genericWord": "Majestuosidad",
                    "description": "Grandeza, distinción, que inspira admiración."
                },
                {
                    "wordInText": "tupido",
                    "genericWord": "Tupido",
                    "description": "Que contiene muchos elementos juntos y apretados."
                }
            ],
            "audio": "9text"
        },
        {
            "pageType": 5,
            "text": "No ví frutos en sus ramas por lo que me adentré en el interior del tupido árbol. Sin poder usar más que mis manos para guiarme, no tardé en perderme. Fue en ese preciso instante que escuché una vez más el canto de las cotorras. En base a prueba y error, entendí su forma de guiarme y no me tomó mucho tiempo navegar alrededor de las ramas y llegar al tronco.",
            "specialWords": [
                {
                    "wordInText": "adentré",
                    "genericWord": "Adentrar",
                    "description": "Introducirse en el interior de algo. Entrar."
                }
            ],
            "question": "¿Para qué cantaron las cotorras?",
            "options": [
                {
                    "isCorrect": true,
                    "text": "Para guiarlo a través de las ramas del árbol"
                },
                {
                    "isCorrect": false,
                    "text": "Para reírse de él porque estaba perdido dentro del árbol"
                },
                {
                    "isCorrect": false,
                    "text": "Para motivarlo y que pueda llegar al fruto del árbol"
                }
            ],
            "hint": [ "En base a prueba y error, entendí su forma de guiarme y no me tomó mucho tiempo navegar alrededor de las ramas y llegar al tronco." ],
            "audio": "9text"
        },
        {
            "pageType": 1,
            "text": "Desde allí pude ver su fruto y, sabiendo que no tenía mucho tiempo, corrí para agarrarlo. Me hubiera encantado poder quedarme contemplando este magnífico árbol pero antes de adentrarme había visto a la luna comenzar su ascenso. Siguiendo el silbido de las cotorras salí y, sin perder tiempo, salté para tomar las cuerdas al momento en que las aves comenzaban a volar. Ellas parecían saber que no había tiempo que perder.",
            "specialWords": [
                {
                    "wordInText": "contemplando",
                    "genericWord": "Contemplar",
                    "description": "Mirar con tiempo, atención y detenimiento."
                }
            ],
            "audio": "9text"
        },
        {
            "pageType": 2,
            "image":  "AguaTurbia 04", 
            "text": "Era una carrera contra el tiempo. La luna se elevaba y las cotorras aleteaban a máxima velocidad. Los gnomos miraban el cielo y veían expectantes cómo la luna, lenta pero segura, se elevaba a la cima del cielo. Ellos estaban seguros que me había acobardado o, peor aún, que el río me había arrastrado.",
            "specialWords": [
                
            ],
            "audio": "9text"
        },

        {
            "pageType": 1,
            "text": "No pudieron predecir que justo cuando la luna estaba por llegar a la cima, una sombra iba a cubrir el cielo e iba a aterrizar en el centro de la plaza. Así de teatral fue mi llegada junto con las cotorras a mi alrededor. Aunque estaba agotado por la travesía que había realizado, me apuré y les presenté a un grupo de anonadados gnomos el fruto del Araucán Milenario.",
            "specialWords": [
                {
                    "wordInText": "predecir",
                    "genericWord": "Predecir",
                    "description": "Anunciar de antemano algo que va a suceder."
                },
                {
                    "wordInText": "anonadados",
                    "genericWord": "Anonadar",
                    "description": "Causar sorpresa."
                }
            ],
            "audio": "9text"
        },
        {
            "pageType": 5,
            "text": "Antes de que pudieran responder, me di vuelta y me acerqué a las cotorras. Me toqué la cabeza y la sentí húmeda. Me reí como pocas veces lo hice y las cotorras parecieron reír también a su forma. Las desaté una a una y les agradecí. Al verlas irse volando pensé que la corona de un pájaro que cae desde el cielo trae verdaderamente buena suerte.",
            "hint": [ "Al verlas irse volando pensé que la corona de un pájaro que cae desde el cielo trae verdaderamente buena suerte." ],
            "specialWords": [
               
            ],
            "question": "¿Qué significa “la corona de un pájaro que cae desde el cielo”?",
            "options": [
                {
                    "isCorrect": true,
                    "text": "Hace referencia al excremento de un ave"
                },
                {
                    "isCorrect": false,
                    "text": "Hace referencia a la capacidad de volar"
                },
                {
                    "isCorrect": false,
                    "text": "Hace referencia a una corona de plumas"
                }
            ],
            "audio": "9text"
        }              
    ],
	"id": 51,
	"genres": [1, 6]
}
