{
    "title": "Alí Babá y los 40 ladrones",
	"assetBundle": "alibaba_spanish",
	"level": 6,
	"description": "Alí Babá, un hombre sencillo, guiado por su curiosidad descubre algo tras lo cual nada será igual. ",
	"genre": "Clásico",
	"author": "Anónimo",
    "illustrator": {
        "firstname": "OX",
        "lastname": "",
        "contactForms": [ "", "" ]
    },
    "estimatedTime": "30", 
    "pages": [
        {
            "pageType": 0,
            "image": "Ali Baba 00"
        },
        {
            "pageType": 5,
            "image": "",
            "text": "Había una vez un hombre llamado Alí Babá. Tenía un hermano de nombre Kassim. Alí Babá era honesto y trabajador; él era leñador, pero tal oficio no le dejaba mucho dinero. Kassim, en cambio, era deshonesto y haragán, malo y usurero. Pero, a diferencia de Alí Babá, era rico. Alí Babá tenía una esposa, una hermosa criada que se llamaba Luz de la Noche, varios hijos fuertes y tres mulas. Kassim también tenía una esposa y decía tener muy mala memoria ya que nunca se acordaba de visitar a sus parientes, ni siquiera les preguntaba si estaban bien o si necesitaban algo. Pero en realidad, no los visitaba porque no quería que le pidieran algún favor ni nada similar.",
            "hint": [ "Pero en realidad, no los visitaba porque no quería que le pidieran algún favor ni nada similar." ],
            "specialWords": [
                {
                    "wordInText": "usurero.",
                    "genericWord": "Usurero",
                    "description": "Persona que cobra mucho por prestar dinero."
                },
                {
                    "wordInText": "oficio",
                    "genericWord": "Oficio",
                    "description": "Profesión, trabajo."
                },
                {
                    "wordInText": "haragán,",
                    "genericWord": "Haragán",
                    "description": "Que no le gusta trabajar. Perezoso, vago."
                },
                {
                    "wordInText": "criada",
                    "genericWord": "Criada",
                    "description": "Persona que trabaja en el servicio doméstico. "
                }
            ],
            "question": "¿Por qué no visitaba a sus parientes Kassim?",
            "options": [
                {
                    "isCorrect": true,
                    "text": "Porque era avaro"
                },
                {
                    "isCorrect": false,
                    "text": "Porque no tenía buena relación"
                },
                {
                    "isCorrect": false,
                    "text": "Porque era rico"
                }
            ],
            "audio": "1text"
        },
        {
            "pageType": 2,
            "image": "Ali Baba 01",
            "text": "Un día en el que Alí Babá estaba en el bosque cortando leña, oyó un ruido que se acercaba y que se parecía al que hacen numerosos caballos cuando galopan. Se asustó, pero como era curioso trepó a un árbol para observar. Espiando, logró contar exactamente cuarenta caballos. Sobre cada caballo venía un ladrón, y pudo ver que cada ladrón tenía una bolsa llena de monedas, vasos y collares de oro. También observó que tenían muchísimas joyas: rubíes, zafiros y perlas. Delante de todos iba uno que parecía ser el jefe.",
            "specialWords": [ ],
            "audio": "2text"
        },
        {
            "pageType": 5,
            "image": "",
            "text": "Los ladrones pasaron debajo de Alí Babá y frenaron ante a una gran roca. Tenía una altura similar a la longitud de una cuadra y era completamente lisa. Entonces el jefe de los ladrones gritó a la roca: —¡Ábrete, Sésamo!—. Se oyó un ruido y la roca, como si fuera una semilla, se abrió por el medio mientras Alí Babá casi se cae del árbol por la sorpresa. Los ladrones entraron por la abertura de la roca con los caballos y los tesoros. Una vez que estuvieron dentro, el jefe gritó: —¡Ciérrate, Sésamo!—. Y la roca se cerró.",
            "hint": [ "—¡Ábrete, Sésamo!—. Se oyó un ruido y la roca, como si fuera una semilla, se abrió por el medio mientras Alí Babá casi se cae del árbol por la sorpresa." ],
            "specialWords": [
                {
                    "wordInText": "Sésamo!—.",
                    "genericWord": "Sésamo",
                    "description": "Un tipo de semilla."
                }
            ],
            "question": "¿Qué es \"¡Ábrete, Sésamo!\"?",
            "options": [
                {
                    "isCorrect": true,
                    "text": "La frase para abrir la cueva"
                },
                {
                    "isCorrect": false,
                    "text": "El grito de guerra de los ladrones"
                },
                {
                    "isCorrect": false,
                    "text": "El nombre del jefe de los ladrones"
                }
            ],
            "audio": "3text"
        },
        {
            "pageType": 1,
            "text": "—Es indudable —pensó Alí Babá sin bajar del árbol— que esa roca es mágica y que las palabras pronunciadas por el jefe de los ladrones tienen el poder de abrirla. Pero más indudable todavía es que dentro de esa extraña roca los ladrones tienen su escondite secreto donde guardan todo lo que roban—. Y en seguida se oyó otra vez un gran ruido y la roca se abrió. Los ladrones salieron y el jefe gritó: —¡Ciérrate, Sésamo!—. La roca se cerró y los ladrones se alejaron a todo galope. Cuando los dejó de ver, Alí Babá bajó del árbol.",
            "specialWords": [
			{
                    "wordInText": "indudable",
                    "genericWord": "Indudable",
                    "description": "Que no se puede poner en duda. Evidente, cierto."
                } ],
            "audio": "4text"
        },
       {
		"pageType": 1,
		"text": "—Yo también entraré en esa roca. El asunto será ver si otra persona, pronunciando las palabras mágicas, puede abrirla —pensó. Entonces, con todas las fuerzas que tenía y parado frente a la piedra, gritó: —¡Ábrete, Sésamo!—. Y la roca se abrió. Rápidamente se lanzó por la puerta mágica y entró. Una vez dentro, se encontró con el tesoro más grande del mundo. —¡Ciérrate, Sésamo! —dijo después. La roca se cerró con Alí Babá dentro y él, con toda tranquilidad, se ocupó de meter en una bolsa una buena cantidad de monedas de oro y rubíes. No demasiado: lo suficiente como para asegurarse la comida de un año y algunos meses más. Después dijo: —¡Ábrete, Sésamo!—. La roca se abrió y Alí Babá salió con la bolsa al hombro. Dijo: —¡Ciérrate, Sésamo!— y la roca se cerró. Luego volvió a su casa, cantando y muy contento, estaba ansioso por mostrarle a su mujer todo lo que había conseguido.",
		"specialWords": [],
		"audio": "4text"
	},
         {
            "pageType": 3,
            "image": "Ali Baba 02"
        },
        {
            "pageType": 5,
            "image": "",
            "text": "Pero cuando su esposa vio lo que tenía la bolsa se puso a llorar. —¿A quién le robaste eso? —llegó a decir mientras se le caían las lágrimas. Cuando Alí Babá le contó la verdadera historia, la mujer se puso a bailar con él. —Nadie debe enterarse que tenemos este tesoro —dijo Alí Babá. Porque si alguien se entera querrá saber de dónde lo sacamos, y si se lo decimos querrá ir también a esa roca mágica. Si va, puede ser que los ladrones lo descubran, y si lo descubren terminarán por descubrirnos a nosotros. Si nos descubren a nosotros nos harán algo muy malo, estoy seguro. Así que enterremos todo esto.",
            "hint": [ "Si nos descubren a nosotros nos harán algo muy malo, estoy seguro." ],
            "specialWords": [ ],
            "question": "¿Por qué no podían contarle a nadie lo del tesoro?",
            "options": [
                {
                    "isCorrect": true,
                    "text": "Porque tenían miedo de que se enteren los ladrones"
                },
                {
                    "isCorrect": false,
                    "text": "Porque no querían no compartir el tesoro con otras personas"
                },
                {
                    "isCorrect": false,
                    "text": "Porque lo habían robado y los denunciarían"
                }
            ],
            "audio": "6text"
        },
        {
            "pageType": 1,
            "text": "—Antes contemos cuántas monedas y piedras preciosas hay —dijo la mujer de Alí Babá. —¿Y terminar dentro de diez años? ¡Sería absurdo! —le contestó él. —Entonces pesaré todo esto. Así sabré, al menos aproximadamente, cuánto tenemos y cuánto podremos gastar. Pediré prestada una balanza —dijo la mujer.",
            "specialWords": [
                {
                    "wordInText": "absurdo!",
                    "genericWord": "Absurdo",
                    "description": "Que no tiene sentido."
                }
            ],
            "audio": "7text"
        },
          {
            "pageType": 5,
            "image": "",
            "text": "Desgraciadamente, la mujer de Alí Babá tuvo la mala idea de ir a la casa de Kassim a pedir prestada una balanza. Kassim no estaba en ese momento, pero sí su esposa. —¿Y para qué quieres la balanza? —le preguntó la mujer de Kassim. —Para pesar unos granos —contestó la mujer de Alí Babá. —¡Qué raro! Éstos no tienen ni para caerse muertos y ahora quieren una balanza para pesar granos —pensó la dueña de casa.",
            "hint": [ "—¡Qué raro! Éstos no tienen ni para caerse muertos y ahora quieren una balanza para pesar granos —pensó la dueña de casa." ],
            "specialWords": [
           
            ],
            "question": "¿Qué tipo de pensamiento tuvo la mujer de Kassim luego de responder?",
            "options": [
                {
                    "isCorrect": true,
                    "text": "Pensamiento de sospecha"
                },
                {
                    "isCorrect": false,
                    "text": "Pensamiento de enojo"
                },
                {
                    "isCorrect": false,
                    "text": "Pensamiento de tristeza"
                }
            ],
            "audio": "8text"
        },
        {
            "pageType": 5,
            "image": "",
            "text": "—¿Y qué clase de granos vas a pesar? —le preguntó la mujer de Kassim, simulando ingenuidad. —Pues... granos… —dijo balbuceando la mujer de Alí Babá. —Bueno, voy a prestarte la balanza —le dijo la mujer de Kassim. Pero antes de prestársela, y muy disimuladamente, la mujer de Kassim untó con grasa la base de la balanza.",
            "hint": [ "Pero antes de prestársela, y muy disimuladamente, la mujer de Kassim untó con grasa la base de la balanza." ],
            "specialWords": [
                {
                    "wordInText": "untó",
                    "genericWord": "Untar",
                    "description": "Cubrir la superficie de una cosa con una sustancia grasosa."
                },
                {
                    "wordInText": "ingenuidad.",
                    "genericWord": "Ingenuo",
                    "description": "Inocente, que no tiene segundas intenciones."
                },
                {
                    "wordInText": "disimuladamente,",
                    "genericWord": "Disimular",
                    "description": "Hace algo sin llamar la atención, de forma oculta. "
                }
				,
                {
                    "wordInText": "balbuceando",
                    "genericWord": "Balbucear",
                    "description": "Hablar con dificultad."
                }
            ],
            "question": "¿Para qué untó grasa en la balanza?",
            "options": [
                {
                    "isCorrect": true,
                    "text": "Para que algo se quede pegado y así averiguar qué habían pesado"
                },
                {
                    "isCorrect": false,
                    "text": "Para engañarla y que la balanza pese más, así se confundiría"
                },
                {
                    "isCorrect": false,
                    "text": "Para que se resbale todo lo que pese y no le sirviera la balanza"
                }
            ],
            "audio": "8text"
        },
        {
            "pageType": 5,
            "image": "",
            "text": "—Algunos granos se pegarán en la grasa, y así descubriré qué estuvieron pesando realmente —pensó la mujer de Kassim. Alí Babá y su mujer pesaron todas las monedas y las piedras preciosas. Después, devolvieron la balanza. Pero un rubí había quedado pegado a la grasa. —De manera que éstos son los granos que estuvieron pesando —masculló la mujer de Kassim. —Se lo mostraré a mi marido —continuó diciendo.",
            "hint": [ "—De manera que éstos son los granos que estuvieron pesando —masculló la mujer de Kassim. —Se lo mostraré a mi marido —continuó diciendo." ],
            "specialWords": [
                {
                    "wordInText": "—masculló",
                    "genericWord": "Mascullar",
                    "description": "Hablar entre dientes y en voz baja."
                }
            ],
            "question": "¿Cómo es la mujer de Kassim?",
            "options": [
                {
                    "isCorrect": true,
                    "text": "Maliciosa y envidiosa"
                },
                {
                    "isCorrect": false,
                    "text": "Muy buena con sus parientes"
                },
                {
                    "isCorrect": false,
                    "text": "Una mujer interesada en ayudar"
                }
            ],
            "audio": "9text"
        },
        {
            "pageType": 2,
            "image": "Ali Baba 03",
            "text": "Cuando Kassim vio el rubí, casi se muere del disgusto. Y él, que nunca se acordaba de visitar a Alí Babá, fue corriendo a buscarlo. Sin saludar a nadie, entró a la casa de su hermano en el mismo momento en que estaban por enterrar el tesoro. —¡Sinvergüenzas! —gritó. Ustedes siempre fueron unos pobres miserables. Díganme de dónde sacaron ese maravilloso tesoro si no quieren que los denuncie a las autoridades. Y siguió haciendo un escándalo, por la rabia que tenía. Alí Babá, resignado, comprendió que lo mejor sería contarle la verdad.",
            "specialWords": [
			{
                    "wordInText": "rabia",
                    "genericWord": "Rabia",
                    "description": "Ira, enojo, enfado grande."
                },
				{
                    "wordInText": "resignado,",
                    "genericWord": "Resignación",
                    "description": "Darse por vencido. Aceptar y tolerar la adversidad."
                }
				 ],
			
            "audio": "10text"
        },
        {
            "pageType": 1,
            "text": "—Mañana mismo iré hasta esa roca y me traeré todo a mi casa —dijo Kassim cuando terminaron de explicarle. A la mañana siguiente, Kassim estaba frente a la roca dispuesto a pronunciar las palabras mágicas. Había llevado 12 mulas y 24 bolsas; ya que pensaba sacar todo el oro posible. —¿Qué era lo que tenía que decir? —se preguntó. Ah, sí, ahora recuerdo… Y muy emocionado exclamó: —¡Ábrete, Sésamo!—. La roca se abrió y Kassim entró. Después dijo —¡Ciérrate, Sésamo!— y la roca se cerró con él dentro. Una hora estuvo Kassim contemplando las montañas de monedas de oro y piedras preciosas.",
            "specialWords": [
			{
                    "wordInText": "contemplando",
                    "genericWord": "Contemplar",
                    "description": "Mirar con mucha atención y profundidad."
                } ],
            "audio": "11text"
        },
        {
            "pageType": 1,
            "text": "—Aunque tenga que venir todos los días, no dejaré la más mínima cosa de valor que haya aquí. Me lo voy a llevar todo a mi casa —pensó Kassim. Y se puso a morder las monedas para ver si eran falsas. Después, empezó a elegir entre las piedras preciosas. —Aunque me las llevaré todas, es mejor que empiece por las más grandes, no vaya a ser que  mañana no pueda venir y me quede sin las mejores —dijo para sus adentros. La elección le llevó unas cinco horas. Pero en ningún momento se sintió cansado. —Es el trabajo más hermoso que hice en mi vida. Gracias al tonto de mi hermano, me he convertido en el hombre más rico del mundo —decía. Y cuando cargó las 24 bolsas se dispuso a partir. —¿Qué era lo que tenía que decir? —se preguntó otra vez. —Ábrete, Alpiste —dijo. Pero la roca no se movió. —Ábrete, Alpiste —repitió Kassim. Pero la roca permaneció inmóvil. —¡Oh, no! Olvidé el nombre de la semilla. ¿Por qué no lo habré anotado en algún lugar? —dijo Kassim.",
            "specialWords": [ 
			{
                    "wordInText": "inmóvil.",
                    "genericWord": "Inmóvil",
                    "description": "Quieto. Que no se mueve."
                }],
            "audio": "11text"
        },
        {
            "pageType": 5,
            "text": "Y, desesperado porque sabía que pronto volverían los ladrones, empezó a pronunciar el nombre de todas las semillas que recordaba: —Ábrete, Cebada—; —Ábrete, Maíz—; —Ábrete, Garbanzo—. Al final, estaba muy asustado, ya no sabía qué decir y comenzó a inventar: —Ábrete, Zanahoria—; —Ábrete, Coliflor—; —Ábrete, Calabaza—. Y repetía estas frases una y otra vez.",
            "question": "¿Por qué estaba tan desesperado Kassim?",
            "options": [
                {
                    "isCorrect": true,
                    "text": "Porque sabía que iban a volver los ladrones"
                },
                {
                    "isCorrect": false,
                    "text": "Porque estaba ansioso por contar lo que había robado"
                },
                {
                    "isCorrect": false,
                    "text": "Porque lo estaba esperando su mujer"
                }
            ],
            
            "hint": ["Y, desesperado porque sabía que pronto volverían los ladrones, empezó a pronunciar el nombre de todas las semillas que recordaba"]
        },
        {
            "pageType": 5,
            "image": "",
            "text": "De repente, la roca se abrió. Pero no por Kassim, sino por los cuarenta ladrones que regresaban. Y cuando vieron a Kassim, le cortaron la cabeza. —¿Cómo habrá entrado aquí? —preguntó uno de los ladrones. —Ya lo averiguaremos —dijo el jefe. Ahora salgamos a robar otra vez. Y se fueron después de dejar bien cerrada la roca. Alí Babá estaba preocupado porque Kassim no regresaba y decidió ir a buscarlo.",
            "hint": [ "Pero no por Kassim, sino por los cuarenta ladrones que regresaban. Y cuando vieron a Kassim, le cortaron la cabeza."],
            "specialWords": [ ],
            "question": "¿Qué hacen los ladrones si encuentran a alguien en su cueva?",
            "options": [
                {
                    "isCorrect": true,
                    "text": "Lo matan"
                },
                {
                    "isCorrect": false,
                    "text": "Lo convierten en ladrón"
                },
                {
                    "isCorrect": false,
                    "text": "Le preguntan cómo entró"
                }
            ],
            "audio": "13text"
        },
        {
            "pageType": 1,
            "image": "",
            "text": "Alí Babá dijo —Ábrete, Sésamo— y cuando entró, vio a Kassim muerto. Llorando, se lo llevó a su casa para darle sepultura. Pero había un problema: ¿qué les diría a los vecinos? Si les contaba que Kassim había sido asesinado por los ladrones se descubriría el secreto, y eso no convenía. —Digamos que murió de muerte natural —dijo Luz de la Noche. —¿Cómo vamos a decir eso? Nadie muere naturalmente con la cabeza cortada —respondió Alí Babá. —Yo lo resolveré —dijo Luz de la Noche, y fue a buscar a un zapatero. Luego de un rato de caminata, llegó a la casa del zapatero. —Zapatero —le dijo—, voy a vendarte los ojos y te llevaré a mi casa—. —Eso nunca. Si voy, iré con los ojos libres —le contestó el zapatero. No —repuso Luz de la Noche. Y le dio una moneda de oro.",
            "specialWords": [ ],
            
            "audio": "14text"
        },
		{
            "pageType": 3,
            "image": "Ali Baba 04"
         
        },
		{
            "pageType": 1,
            "image": "",
            "text": "—¿Y para qué quieres vendarme los ojos? —preguntó el zapatero. —Para que no veas a dónde te llevo y no puedas decir a nadie dónde queda mi casa —dijo Luz de la Noche, y le dio otra moneda de oro. —¿Y qué tengo que hacer en tu casa? —preguntó el zapatero. —Coser a un muerto —le explicó Luz de la Noche. —Ah, no.  Eso sí que no —dijo el zapatero y tendió la mano para que Luz de la Noche le diera otra moneda. —Está bien —dijo el zapatero después de recibir la moneda, vamos a tu casa. Y fueron. El zapatero cosió la cabeza del muerto, uniéndola con el resto del cuerpo. Y todo lo hizo con los ojos vendados. Finalmente, volvió a su casa acompañado por Luz de la Noche y allí se quitó la venda. —No le cuentes a nadie lo que hiciste —le advirtió Luz de la Noche.",
            "specialWords": [ ],
            
            "audio": "14text"
        },
		
        
        {
            "pageType": 5,
            "image": "",
            "text": "Y se fue contenta, porque gracias a su plan el problema estaba solucionado. Cuando los vecinos fueron informados que Kassim había muerto, nadie sospechó nada. Y eso fue lo que pasó con Kassim, el malo, el haragán, el de mala memoria. Pero los ladrones volvieron a la roca y vieron que Kassim no estaba. Ninguno de ellos era muy inteligente, pero el jefe dijo: —Si el muerto no está, quiere decir que alguien se lo llevó. ¡Quiere decir que alguien descubrió el secreto! Tenemos que saber quién es el que descubrió nuestro secreto. Uno de ustedes debe ir al pueblo y averiguarlo.",
            "hint": [ "—Si el muerto no está, quiere decir que alguien se lo llevó. ¡Quiere decir que alguien descubrió el secreto!" ],
            "specialWords": [ ],
            "question": "¿Cómo se dieron cuenta de que alguien más sabía su secreto?",
            "options": [
                {
                    "isCorrect": true,
                    "text": "Porque ya no estaba el cuerpo de Kassim"
                },
                {
                    "isCorrect": false,
                    "text": "Porque se los dijo Kassim"
                },
                {
                    "isCorrect": false,
                    "text": "Porque sabían que alguien se lo había dicho a Kassim"
                }
            ],
            "audio": "16text"
        },
        {
            "pageType": 1,
            "text": "—Yo iré —dijo el ladrón número 39. Cuando llegó al pueblo, pasó frente al taller de un zapatero y entró. Era el mismo zapatero al que había ido a visitar Luz de la Noche. —Zapatero, estoy buscando a un muerto que se murió hace poco. ¿No lo has visto?—le consultó. —¿Uno sin cabeza? —preguntó el zapatero. —Así es —dijo el ladrón. —No, no lo vi —respondió el zapatero. —De mí no se ríe ningún zapatero. Bien sabes de quién hablo —dijo el ladrón. —Sí que sé, pero juro que no lo vi —respondió el zapatero y le contó lo sucedido. —Qué lástima —se lamentó el 39—, yo quería recompensarte con esta linda bolsita—. Y le mostró una bolsa llena de monedas de oro. —Un momento —dijo el zapatero—, yo no vi nada, pero debes saber que los ciegos tienen muy desarrollados sus otros sentidos. Cuando me vendaron los ojos, súbitamente se me desarrolló el sentido del olfato. Creo que por el olor podría reconocer la casa a la que me llevaron. Y agregó: —Véndame los ojos y sígueme. Me guiaré por mi nariz.",
            "specialWords": [ 
			{
                    "wordInText": "súbitamente",
                    "genericWord": "Súbito",
                    "description": "De repente, repentino."
                }],
			
            "audio": "17text"
        },
        {
            "pageType": 2,
            "image": "Ali Baba 05",
            "text": "Así se hizo. Con su nariz al frente fue el zapatero oliendo todo. Detrás de él iba el ladrón número 39. Hasta que se pararon frente a una casa. —Es ésta.  La reconozco por el olor de la leña que sale de ella —dijo el zapatero. —Muy bien —respondió el ladrón. Haré una marca en la puerta para que pueda reconocerla cuando venga con a mis compañeros hasta aquí y así podremos cumplir nuestra venganza, amparados por la oscuridad de la noche.",
            "specialWords": [
                {
                    "wordInText": "amparados",
                    "genericWord": "Amparar",
                    "description": "Favorecer, proteger."
                }
            ],
            "audio": "18text"
        },
        {
            "pageType": 5,
            "image": "",
            "text": "Y el ladrón hizo una cruz en la puerta. Después se fueron ambos, cada cual por su camino. Pero Luz de la Noche había visto todo. Entonces, salió a la calle y marcó la puerta de todas las casas con una cruz igual a la que había hecho el ladrón. Y se fue a dormir muy tranquila.",
            "hint": [ "Entonces, salió a la calle y marcó la puerta de todas las casas con una cruz igual a la que había hecho el ladrón." ],
            "specialWords": [ ],
            "question": "¿Por qué marcó todas las casa Luz de Noche?",
            "options": [
                {
                    "isCorrect": true,
                    "text": "Para que no pudieran identificar su casa"
                },
                {
                    "isCorrect": true,
                    "text": "Para engañar a los ladrones"
                },
                {
                    "isCorrect": false,
                    "text": "Para vengarse del zapatero"
                }
            ],
            "audio": "19text"
        },
        {
            "pageType": 5,
            "image": "",
            "text": "—Jefe —dijo el ladrón número 39 cuando volvió a la guarida secreta—, con ayuda de un zapatero descubrí la casa del que sabe nuestro secreto y ahora puedo conducirlos hasta ese lugar  ya que marqué la puerta con una cruz. —¡Vamos! —dijeron todos. Y blandiendo sus alfanjes se lanzaron a todo galope. —Ésta es la casa —dijo el ladrón número 39 cuando llegaron a la primera puerta del pueblo. —¿Cuál? —preguntó el jefe. Y continuó, —¡Todas tienen una cruz! ¿Cuántas puertas marcaste?—. El jefe, enfurecido, le cortó la cabeza. Sin perder el tiempo, ordenó el regreso. No querían levantar sospechas.",
            "hint": [ "El jefe, enfurecido, le cortó la cabeza. Sin perder el tiempo, ordenó el regreso. No querían levantar sospechas." ],
            "specialWords": [
                {
                    "wordInText": "blandiendo",
                    "genericWord": "Blandir",
                    "description": "Mover con la mano algo, especialmente un arma."
                },
                {
                    "wordInText": "alfanjes",
                    "genericWord": "Alfanjes",
                    "description": "Especie de sable corto y curvado, con filo solamente por un lado, y por los dos en la punta."
                }
            ],
            "question": "¿Cómo era el jefe de los ladrones?",
            "options": [
                {
                    "isCorrect": true,
                    "text": "Malvado y vengativo"
                },
                {
                    "isCorrect": false,
                    "text": "Comprensivo con los errores"
                },
                {
                    "isCorrect": false,
                    "text": "Bondadoso y pacífico"
                }
            ],
            "audio": "10text"
        },
        {
            "pageType": 1,
            "text": "—Alguien tiene que volver al pueblo, hablar con ese zapatero y tratar de dar con la casa. —Iré yo —dijo el ladrón número 38. Y se marchó en busca del zapatero. Al poco rato lo encontró. El zapatero se hizo vendar los ojos y lo llevó hasta la casa siguiendo de nuevo su olfato. Y el ladrón número 38 hizo una cruz en la puerta. Pero esta vez era de color rojo y tan chiquita que apenas se veía. Después, el zapatero y ladrón se fueron, cada cual por su camino. Pero Luz de la Noche vio todo y repitió la estratagema anterior: en todas las puertas de la vecindad marcó una cruz roja, igual a la que había hecho el bandido. Nuevamente, buscando la casa, descubrieron que todas tenían una cruz pequeña en la puerta. Al igual que la última vez, el jefe de los bandidos le cortó la cabeza al ladrón que no había cumplido con su misión.",
            "specialWords": [
			{
                    "wordInText": "estratagema",
                    "genericWord": "Estratagema",
                    "description": "Astucia, fingimiento, engaño artificioso."
                } ],
            "audio": "21text"
        },
		{
            "pageType": 1,
            "text": "A continuación el jefe dijo: —Mañana hablaré yo con ese zapatero—. Y ordenó el regreso. Al día siguiente el jefe de los ladrones buscó al zapatero. Lo encontró fácilmente. El zapatero se hizo vendar los ojos y lo guió. Le mostró la casa pero el jefe no hizo ninguna cruz en la puerta ni otra señal. Lo que hizo fue quedarse durante diez minutos mirando detenidamente la casa. —Ahora soy capaz de reconocerla entre diez mil casas parecidas —pensó. Y fue en busca de sus subordinados. —Amigos —les dijo—, para entrar en la casa del que descubrió nuestro secreto y cortarle la cabeza sin ningún problema, me disfrazaré de vendedor de aceite. En cada caballo cargaré dos tinas de aceite pero sin aceite. Cada uno de ustedes se esconderá en una de las tinas y cuando yo dé la orden ustedes saldrán de ellas y mataremos al que descubrió nuestro secreto y a todos los que salgan a defenderlo—. —¡Muy bien! —rugieron los ladrones.",
            "specialWords": [
			{
                    "wordInText": "tinas",
                    "genericWord": "Tina",
                    "description": "Vasija grande de barro. Sirve para contener líquidos o cosas destinadas para la alimentación."
                }
			
		 ],
            "audio": "21text"
        },
        
        {
            "pageType": 5,
            "image": "",
            "text": "Los caballos fueron cargados con las tinas y cada ladrón se metió en una de ellas. El jefe se disfrazó de vendedor de aceite y después tapó las tinas. Esa tarde los 38 ladrones entraron en el pueblo. Todos los que los vieron entrar pensaban que se trataba de un vendedor que traía varias tinas de aceite. Llegaron a la casa de Alí Babá y el jefe de los ladrones pidió permiso para pasar. —¿Quién eres? —preguntó Alí Babá. —Un pacífico vendedor de aceite. Lo único que te pido es albergue para mí y para mis caballos —respondió el jefe de los bandidos. Y Alí Babá lo hospedó.",
            "hint": [ "—¿Quién eres? —preguntó Alí Babá. —Un pacífico vendedor de aceite. Lo único que te pido es albergue para mí y para mis caballos —respondió el jefe de los bandidos." ],
            "specialWords": [ ],
            "question": "¿Por qué lo dejó pasar Alí Babá?",
            "options": [
                {
                    "isCorrect": true,
                    "text": "Porque no sabía que era el jefe de los ladrones"
                },
                {
                    "isCorrect": false,
                    "text": "Porque sabía que era el jefe de los ladrones pero quería engañarlo"
                },
                {
                    "isCorrect": false,
                    "text": "Porque su esposa le dijo que lo hiciera"
                }
            ],
            "audio": "23text"
        },
		{
            "pageType": 3,
            "image": "Ali Baba 06"
        },
        {
            "pageType": 1,
            "text": "Alí Babá le ofreció comida, dulces y licores pero el jefe de los ladrones lo único que quería era que llegara la noche para matar a Alí Babá y a toda su familia, por lo que rechazó todo lo que le ofrecía. Llegó la noche y hubo que encender las lámparas. —Nos hemos quedado sin una gota de aceite y no puedo encender las lámparas. Por suerte hay en casa un vendedor de aceites; sacaré un poco de esas grandes tinas que él tiene —dijo Luz de la Noche. Tomó un pesado cucharón de cobre y fue hasta la primera tina y levantó la tapa. El ladrón que estaba adentro creyó que era su jefe que venía a buscarlo para lanzarse al ataque y asomó la cabeza. Luz de la Noche lo vio y le pegó con el cucharón en la cabeza. El ladrón no se levantó más. Luz de la Noche fue hasta la segunda tina y levantó la tapa, y otro ladrón asomó la cabeza, creyendo que era su jefe. Y Luz de Noche también le dio con el cucharón. Este ladrón tampoco se levantó más. Tina por tina recorrió Luz de la Noche, y en todas sucedió lo mismo.",
            "specialWords": [ ],
            "\"1text\"": "24text"
        },
        {
            "pageType": 5,
            "image": "",
            "text": "Enojadísima, fue a buscar al vendedor de aceite y blandiendo el cucharón le dijo: —Es una vergüenza. No encontré ni una miserable gota de aceite en ninguna de sus tinas. ¿Con qué enciendo ahora mis lámparas?—. Y le dio con el cucharón en la cabeza. El jefe de los ladrones cayó desplomado. —¿Por qué tratas así a mis huéspedes? —preguntó Alí Babá. Entonces Luz de la Noche le quitó el disfraz al jefe de la banda y todo quedó aclarado. A continuación, los ladrones recibieron su merecido.",
            "hint": [ "Entonces Luz de la Noche le quitó el disfraz al jefe de la banda y todo quedó aclarado. A continuación, los ladrones recibieron su merecido." ],
            "specialWords": [
			{
                    "wordInText": "desplomado.",
                    "genericWord": "Desplomado",
                    "description": "Caerse sin vida o sin conocimiento."
                }
			 ],
            "question": "¿Sabía Luz de Noche que él no vendía aceite antes de pegarle con el cucharón?",
            "options": [
                {
                    "isCorrect": true,
                    "text": "Sí, por eso le pegó"
                },
                {
                    "isCorrect": false,
                    "text": "No, estaba enojada porque no tenía aceite"
                },
                {
                    "isCorrect": false,
                    "text": "No, pero le pegó igual"
                }
            ],
            "audio": "25text"
        },
        {
            "pageType": 3,
            "image": "Ali Baba 07"
        },
        {
            "pageType": 5,
            "text": "Y eso fue lo que pasó con ellos. En cuanto a Alí Babá, al día siguiente fue a buscar algunas monedas de oro a la cueva y cuando llegó no encontró nada. La roca había desaparecido y junto con ella todos los tesoros que escondía.",
            "question": "¿Qué pasó con Alí Babá?",
            "options": [
                {
                    "isCorrect": true,
                    "text": "Volvió al lugar donde estaba la cueva, pero había desaparecido"
                },
                {
                    "isCorrect": false,
                    "text": "Volvió a la cueva y se llevó todo todos los tesoros, sin dejar nada"
                },
                {
                    "isCorrect": false,
                    "text": "Volvió a la cueva pero no quiso llevarse nada porque sufría por Kassim"
                }
            ],
            "hint": ["En cuanto a Alí Babá, al día siguiente fue a buscar algunas monedas de oro a la cueva y cuando llegó no encontró nada."]
        }
    ],
	"id": 38,
	"genres": [2, 7, 13]
}