{
	"title": "EL GIGANTE EGOÍSTA",
					"assetBundle": "giganteegoista_spanish",

	"level": 1,
	"description": "UN GIGANTE APRENDE LA IMPORTANCIA DE COMPARTIR.",
	"genre": "CUENTO",
    "author": "ANÓNIMO",
	"illustrator": {
	    "firstname": "OX",
	    "lastname": "",
	    "contactForms": [ "", "" ]
	},
	"estimatedTime": "30", 
	"pages": [{
		"pageType": 0,
		"image": "Gigante 00"
	}, {
		"pageType": 5,
		"image": "",
		"text": "LOS NIÑOS, CUANDO SALÍAN DE LA ESCUELA EN PRIMAVERA, ACOSTUMBRABAN A JUGAR EN EL JARDÍN DE UN GIGANTE. EL GIGANTE ERA MUY EGOÍSTA Y PROHIBIÓ A LOS NIÑOS JUGAR EN SU JARDÍN.",
		"hint": ["CUANDO SALÍAN DE LA ESCUELA EN PRIMAVERA"],
		"specialWords": [],
		"question": "¿CUÁNDO JUGABAN LOS NIÑOS EN EL JARDÍN?",
		"options": [{
			"isCorrect": true,
			"text": "EN PRIMAVERA"
		}, {
			"isCorrect": false,
			"text": "EN VERANO"
		}, {
			"isCorrect": false,
			"text": "EN EL JARDÍN DE UN GIGANTE"
		}, {
			"isCorrect": false,
			"text": "EN LA ESCUELA"
		}],
		"audio": "1text"
	}, {
		"pageType": 5,
		"image": "",
		"text": "ESE INVIERNO HIZO UN TERRIBLE FRÍO, PERO CUANDO LLEGÓ LA PRIMAVERA, TODO EL PUEBLO SE LLENÓ DE PÁJAROS Y FLORES. ",
		"hint": ["PERO CUANDO LLEGÓ LA PRIMAVERA"],
		"specialWords": [],
		"question": "¿POR QUÉ SE LLENÓ EL PUEBLO DE PÁJAROS Y FLORES?",
		"options": [{
			"isCorrect": true,
			"text": "PORQUE LLEGÓ LA PRIMAVERA"
		}, {
			"isCorrect": false,
			"text": "PORQUE LA GENTE DEL PUEBLO LOS ALIMENTABA"
		}, {
			"isCorrect": false,
			"text": "PORQUE HIZO FRÍO EN INVIERNO"
		}],
		"audio": "2text"
	}, {
		"pageType": 2,
		"image": "Gigante 01",
		"text": "ESTABA TODO LLENO DE FLORES, EXCEPTO EL JARDÍN DEL GIGANTE. LA NIEVE Y LA ESCARCHA SE QUEDARON EN ESE JARDÍN PARA SIEMPRE. ALLÍ, EL INVIERNO NO PASÓ.",
		"specialWords": [],
		"audio": "3text"
	}, {
		"pageType": 3,
		"image": "Gigante 02"
	}, {
		"pageType": 1,
		"text": "AL SENTIRSE SOLO Y ABANDONADO, EL GIGANTE SE DIÓ CUENTA DE SU ERROR Y SE ARREPINTIÓ DE HABER SIDO TAN EGOÍSTA. A LA MAÑANA SIGUIENTE, EL GIGANTE OYÓ CANTAR A UN JILGUERO. LOS  NIÑOS HABÍAN ENTRADO AL JARDÍN POR UN AGUJERO. Y CON ELLOS VOLVIÓ LA PRIMAVERA.",
		"specialWords": [],
		"audio": "5text"
	}, {
		"pageType": 1,
		"text": "LOS ÁRBOLES SE HABÍAN CUBIERTO DE HOJAS. LOS PÁJAROS VOLABAN PIANDO ALEGREMENTE. LAS FLORES SE ASOMABAN ENTRE LA HIERBA VERDE. Y EL GIGANTE SE SENTÍA FELIZ EN EL JARDÍN JUGANDO CON LOS NIÑOS.",
		"specialWords": [],
		"audio": "6text"
	}, {
		"pageType": 5,
		"image": "Gigante 03",
		"hint": [],
		"specialWords": [],
		"question": "¿QUÉ PASÓ AL FINAL DE LA HISTORIA?",
		"options": [{
			"isCorrect": true,
			"text": "EL GIGANTE JUGÓ CON LOS NIÑOS"
		}, {
			"isCorrect": false,
			"text": "EL GIGANTE PROHIBIÓ A LOS NIÑOS JUGAR"
		}, {
			"isCorrect": false,
			"text": "EL GIGANTE ESTABA TRISTE"
		}],
		"audio": "7text"
	}],
	"id": 6,
	"genres": [1, 5]
}