{
	"title": "El mito de Pandora",
		"assetBundle": "mitopandora_spanish",
	"level": 5,
	"description": "Mito que cuenta la historia del inicio de la humanidad.",
    "author": "Anónimo",
	"illustrator": {
	    "firstname": "OX",
	    "lastname": "",
	    "contactForms": [ "", "" ]
	},
	"estimatedTime": "30", 
	"pages": [{
		"pageType": 0,
		"image": "Pandora 00"
	}, {
		"pageType": 5,
		"image": "",
		"text": "En un principio todo era caos, hasta que los dioses decidieron dar a cada cosa existente su lugar en la tierra. También decidieron crear a los animales y entre ellos a uno que fuera superior: el hombre; esta tarea fue encomendada a Prometeo y su hermano Epimeteo. Prometeo tomó agua y barro para moldear al hombre a imagen y semejanza de los dioses.",
		"hint": ["Prometeo tomó agua y barro para moldear al hombre a imagen y semejanza de los dioses."],
		"specialWords": [{
			"wordInText": "caos,",
			"genericWord": "Caos",
			"description": "Desorden. Confusión absoluta."
		}, {
			"wordInText": "encomendada",
			"genericWord": "Encomendar",
			"description": "Pedirle a una persona que realice una determinada acción."
		}, {
			"wordInText": "moldear",
			"genericWord": "Moldear",
			"description": "Dar forma a algo."
		}],
		"question": "¿De qué están hechos los hombres?",
		"options": [{
			"isCorrect": true,
			"text": "De barro y agua"
		}, {
			"isCorrect": false,
			"text": "De carne y hueso"
		}, {
			"isCorrect": false,
			"text": "De dioses"
		}],
		"audio": "1text"
	}, {
		"pageType": 2,
		"image": "Pandora 01",
		"text": "Cuando Prometeo quiso proveer al hombre de dones especiales para hacerlo superior, se dio cuenta que Epimeteo ya los había agotado todos en la creación de los animales, así que subió al Olimpo y robó las semillas de Helios -el Sol- y se las regaló a los hombres. Con el fuego como regalo, los hombres fueron capaces no sólo de alimentarse, sino también de defenderse y ahuyentar a los animales, de fabricar herramientas para trabajar la tierra, de calentarse y de iluminar durante la noche.",
        "specialWords": [
            {
			"wordInText": "Olimpo",
			"genericWord": "Olimpo",
			"description": "Lugar donde habitan los dioses."
		    },
            {
                "wordInText": "proveer",
                "genericWord": "Proveer",
                "description": "Dar lo necesario para lograr algo."
            },
            {
                "wordInText": "dones",
                "genericWord": "Don",
                "description": "Cualidad o habilidad que alguien posee."
            }
        ],
		"audio": "2text"
	}, {
		"pageType": 5,
		"image": "",
		"text": "Cuando Zeus se dio cuenta del robo, la cólera se hizo dueña de él y decidió tomar represalias. Contra los hermanos por haber robado y regalado el fuego y hacia los hombres por haber aceptado el obsequio. De esta manera, ordenó a todos los dioses crear a la primera mujer en la tierra y que cada uno de ellos la llenara de virtudes.",
		"hint": ["Cuando Zeus se dio cuenta del robo, la cólera se hizo dueña de él"],
		"specialWords": [{
			"wordInText": "Zeus",
			"genericWord": "Zeus",
			"description": "Dios de los dioses en la mitología griega."
		}, {
			"wordInText": "virtudes.",
			"genericWord": "Virtud",
			"description": "Cualidad. Perfección. Don."
		}, {
			"wordInText": "represalias",
			"genericWord": "Represalia",
			"description": "Castigo."
		}, {
			"wordInText": "cólera",
			"genericWord": "Cólera",
			"description": "Enojo muy profundo. Ira."
		}, {
			"wordInText": "obsequio.",
			"genericWord": "Obsequio",
			"description": "Regalo."
		}],
		"question": "¿Por qué se creó a la primera mujer?",
		"options": [{
			"isCorrect": true,
			"text": "Porque Zeus se enojó por el robo del fuego"
		}, {
			"isCorrect": false,
			"text": "Porque los hombres necesitaban compañía"
		}, {
			"isCorrect": false,
			"text": "Porque había que darle virtudes"
		}],
		"audio": "3text"
	}, {
		"pageType": 1,
		"text": "Hefesto, dios del fuego, la moldeó; Atenea, diosa de la sabiduría, le regaló un cinturón de perlas, un vestido hermoso color púrpura y otras piedras preciosas; Afrodita, diosa del amor, le dio la belleza; Apolo, dios de la luz y la verdad, le dio la música; Hermes, dios de las fronteras y los viajeros, le dio el don de la seducción, un carácter voluble y el poder de la manipulación. Finalmente, coronaron su cabeza con flores.",
        "specialWords": [
         
            {
                "wordInText": "voluble",
                "genericWord": "Voluble",
                "description": "Que cambia frecuentemente. No es constante."
            }
        
        , {
			"wordInText": "manipulación.",
			"genericWord": "Manipular",
			"description": "Hacer que otro haga lo que uno quiere."
		}],
		"audio": "4text"
	},  {
		"pageType": 5,
		"image": "",
		"text": "Pero la primera mujer, Pandora, fue también un arma contra el hombre, pues Zeus quería acabar con él a causa de la desobediencia de Prometeo. Así, esta mujer sería la encargada de llevar al hombre hacia la perdición, y Zeus se lo hizo saber a Hefesto, el más habilidoso del Olimpo.",
		"hint": ["Así, esta mujer sería la encargada de llevar al hombre hacia la perdición, y Zeus se lo hizo saber a Hefesto, el más habilidoso del Olimpo."],
		"specialWords": [{
			"wordInText": "perdición,",
			"genericWord": "Perdición",
			"description": "Ruina, desastre."
		}],
		"question": "¿Qué le dijo Zeus a Hefesto?",
		"options": [{
			"isCorrect": true,
			"text": "Que había hecho a la mujer para llevar al hombre a la perdición"
		}, {
			"isCorrect": false,
			"text": "Que la mujer iba a ser perfecta para el hombre y que serían felices"
		}, {
			"isCorrect": false,
			"text": "Que él era el más habilidoso del Olimpo"
		}],
		"audio": "6text"
	}, {
		"pageType": 1,
		"text": "La mujer fue hecha bella, perfecta y muy similar al hombre, pero también tenía la capacidad de retrasarlo en su trabajo y hacerle olvidar lo que pensaba. Como último regalo, Zeus le entregó a Pandora una caja que no debería abrir bajo ningún concepto. En ella, sin que la mujer lo sepa, estaban encerrados todos los males que dañarían a la raza humana: la enfermedad, la venganza, la ira y todo el mal del mundo. Era una caja que estaba en el Olimpo hace muchísimo tiempo. Los dioses, en conjunto, habían decidido que sólo uno de ellos podría abrirla, ningún otro ser sería capaz de hacerlo. Gracias a esto, Pandora no debía preocuparse demasiado ya que, aunque quisiera, no podría abrirla.",
		"specialWords": [],
		"audio": "7text"
	}, {
		"pageType": 3,
		"image": "Pandora 02"
	},{
		"pageType": 5,
		"image": "",
		"text": "Zeus entregó a Pandora como esposa a Epimeteo, hermano de Prometeo; éste, deslumbrado por la belleza de la mujer, aceptó sin dudarlo, desoyendo los sabios consejos de su hermano. Prometeo siempre le decía que no debía aceptar ningún presente que provenga de Zeus.",
		"hint": ["Prometeo siempre le decía que no debía aceptar ningún presente que provenga de Zeus."],
        "specialWords": [
            {
                "wordInText": "presente",
                "genericWord": "Presente",
                "description": "Regalo, obsequio."
            },
            {
                "wordInText": "deslumbrado",
                "genericWord": "Deslumbrar",
                "description": "Dejar a alguien admirado. Producir una gran impresión."
            },
            {
			"wordInText": "provenga",
			"genericWord": "Provenir",
			"description": "Viene de algo o alguien. Se origina en algo o alguien."
		}
        ],
		"question": "¿Qué le dijo Prometeo a Epimeteo?",
		"options": [{
			"isCorrect": true,
			"text": "Que no aceptara regalos de Zeus"
		}, {
			"isCorrect": false,
			"text": "Que no se casara con Pandora"
		}, {
			"isCorrect": false,
			"text": "Que se enamorara de la mujer"
		}],
		"audio": "8text"
	}, {
		"pageType": 2,
		"image": "Pandora 03",
		"text": "Movida por la curiosidad, con el tiempo Pandora no pudo resistirlo y le pidió a Epimeteo que le abra la caja que Zeus le había regalado. Y en un instante todos los males se repartieron por el mundo, sin poder ser contenidos por las hermosas manos de la mujer.",
		"specialWords": [],
		"audio": "9text"
	}, {
		"pageType": 5,
		"image": "",
		"text": "Asustada, Pandora cerró la tapa justo cuando el último objeto de la caja iba a salir: la esperanza. Posteriormente, arrepentida y viendo lo que su acción había provocado en la humanidad, se dedicó a ir ofreciendo a los hombres, uno a uno, la posibilidad de contar con la esperanza, pues ella la tenía -esta vez sí-, bien guardada.",
		"hint": ["se dedicó a ir ofreciendo a los hombres, uno a uno, la posibilidad de contar con la esperanza,"],
        "specialWords": [
            {
                "wordInText": "esperanza.",
                "genericWord": "Esperanza",
                "description": "Confiar en que las cosas van a salir bien. No desanimarse."
            },
            {
			"wordInText": "esperanza,",
			"genericWord": "Esperanza",
			"description": "Confiar en que las cosas van a salir bien. No desanimarse."
		}
        ],
		"question": "¿Para qué era tan importante que Pandora repartiera la esperanza?",
		"options": [{
			"isCorrect": true,
			"text": "Para que los hombres pudieran vivir a pesar de los males que había en la tierra"
		}, {
			"isCorrect": false,
			"text": "Para que la mujer no esté sola y esté siempre acompañada por un hombre"
		}, {
			"isCorrect": false,
			"text": "Para que Zeus no se enoje aún más con los hombres"
		}],
		"audio": "10text"
	}],
	"id": 30,
	"genres": [4]
}

