{
	"title": "LA LIEBRE DE LAS OREJAS GRANDES",
		"assetBundle": "liebreorejasgrandes_spanish",

	"level": 1,
	"description": "UNA LIEBRE CON OREJAS GRANDES LE DEMUESTRA A SUS COMPAÑERAS QUE NO DEBEN BURLARSE DE ELLA.",
    "author": "ANÓNIMO",
	"illustrator": {
	    "firstname": "OX",
	    "lastname": "",
	    "contactForms": [ "", "" ]
	},
	"estimatedTime": "30", 
	"pages": [{
		"pageType": 0,
		"image": "Orejas 00"
	}, {
		"pageType": 5,
		"image": "",
		"text": "ÉRASE UNA VEZ UNA LIEBRE PEQUEÑA QUE TENÍA OREJAS ENORMES. LAS OTRAS LIEBRES SE REÍAN DE ELLA DICIENDO: -¡TIENES LAS OREJAS MUY GRANDES! ¡QUÉ FEA ERES!-. LA POBRE LIEBRE SE PONÍA MUY TRISTE Y DECÍA: -TODAVÍA TENGO QUE CRECER Y ESPERO QUE LAS OREJAS NO CREZCAN MÁS.",
		"hint": ["LAS OTRAS LIEBRES SE REÍAN DE ELLA DICIENDO: -¡TIENES LAS OREJAS MUY GRANDES! ¡QUÉ FEA ERES!-."],
		"specialWords": [],
		"question": "¿POR QUÉ LA BURLABAN LAS OTRAS LIEBRES?",
		"options": [{
			"isCorrect": true,
			"text": "PORQUE TENÍA OREJAS GRANDES"
		}, {
			"isCorrect": false,
			"text": "PORQUE ERA HERMOSA"
		}, {
			"isCorrect": false,
			"text": "PORQUE ERA UNA LIEBRE"
		}],
		"audio": "1text"
	}, {
		"pageType": 2,
		"image": "Orejas 01",
		"text": "PERO NO SUCEDIÓ LO QUE ELLA IMAGINABA. A MEDIDA QUE CRECIÓ, TAMBIÉN CRECIERON SUS OREJAS. LAS OTRAS LIEBRES LE DECÍAN: -CON ESAS OREJAS TAN GRANDES NO PODRÁS CORRER Y TE CAZARÁN PRONTO.",
		"specialWords": [],
		"audio": "2text"
	}, {
		"pageType": 5,
		"image": "",
		"text": "Y LA LIEBRE SE PONÍA TRISTE. PERO, CON SUS GRANDES OREJAS, PODÍA OÍR MEJOR QUE LAS DEMÁS LIEBRES. PODÍA OÍR A LOS ESCARABAJOS. PODÍA OÍR CÓMO SE ARRASTRABAN LAS LOMBRICES EN LA TIERRA. Y HASTA PODÍA OÍR CAER UNA PLUMA DE PÁJARO.",
		"hint": ["PERO, CON SUS GRANDES OREJAS, PODÍA OÍR MEJOR QUE LAS DEMÁS LIEBRES."],
		"specialWords": [],
		"question": "¿POR QUÉ PODÍA OÍR MEJOR QUE LAS DEMÁS LIEBRES?",
		"options": [{
			"isCorrect": true,
			"text": "PORQUE TENÍA OREJAS MUY GRANDES"
		}, {
			"isCorrect": false,
			"text": "PORQUE TENÍA PODERES"
		}, {
			"isCorrect": false,
			"text": "PORQUE EL RESTO LA BURLABA"
		}],
		"audio": "3text"
	}, {
		"pageType": 5,
		"image": "",
		"text": "UN DÍA, APARECIÓ UN CAZADOR CON SU PERRO. EL CAZADOR ESTABA LEJOS, PERO LA LIEBRE DE LAS OREJAS GRANDES LO OYÓ. RÁPIDAMENTE MOVIÓ SUS GRANDES OREJAS PARA AVISARLE A LAS DEMÁS LIEBRES. AL VERLA, ECHARON A CORRER HACIA EL BOSQUE. Y ALLÍ SE ESCONDIERON.",
		"hint": ["AL VERLA, ECHARON A CORRER HACIA EL BOSQUE. Y ALLÍ SE ESCONDIERON."],
		"specialWords": [],
		"question": "¿DÓNDE SE ESCONDIERON LAS LIEBRES?",
		"options": [{
			"isCorrect": true,
			"text": "EN EL BOSQUE"
		}, {
			"isCorrect": false,
			"text": "EN EL CAMPO"
		}, {
			"isCorrect": false,
			"text": "CON EL CAZADOR"
		}],
		"audio": "4text"
	}, {
		"pageType": 3,
		"image": "Orejas 02"
	}, {
		"pageType": 5,
		"image": "",
		"text": "EL CAZADOR NO LAS PUDO ENCONTRAR Y SE MARCHÓ A SU CASA CON LA PANZA VACÍA. ENTONCES, TODAS LAS LIEBRES DIJERON A LA DE LAS OREJAS GRANDES: -¡QUÉ SUERTE TENER UNAS OREJAS TAN GRANDES! ¡VERDADERAMENTE NO SON FEAS!",
		"hint": ["EL CAZADOR NO LAS PUDO ENCONTRAR Y SE MARCHÓ A SU CASA CON LA PANZA VACÍA."],
		"specialWords": [],
		"question": "¿POR QUÉ LAS LIEBRES ESTABAN CONTENTAS?",
		"options": [{
			"isCorrect": true,
			"text": "PORQUE SE SALVARON DEL CAZADOR"
		}, {
			"isCorrect": false,
			"text": "PORQUE ESTABAN BAILANDO"
		}, {
			"isCorrect": false,
			"text": "PORQUE SE HICIERON AMIGAS"
		}],
		"audio": "6text"
	}, {
		"pageType": 2,
		"image": "Orejas 03",
		"text": "Y DESDE AQUEL DÍA LA LIEBRE COMPRENDIÓ QUE SUS GRANDES OREJAS ERAN HERMOSAS.",
		"specialWords": [],
		"audio": "7text"
	}],
	"id": 1,
	"genres": [1]
}

