{
	"title": "La ostra que perdió su perla",
					"assetBundle": "ostraperdioperla_spanish",

	"level": 3,
	"description": "Una ostra entristecida recibe una ayuda inesperada.",
    "author": "Anónimo",
	"illustrator": {
	    "firstname": "OX",
	    "lastname": "",
	    "contactForms": [ "", "" ]
	},
	"estimatedTime": "30", 
	"pages": [{
		"pageType": 0,
		"image": "Perla 00"
	}, {
		"pageType": 2,
		"image": "Perla 01",
		"text": "Había una vez una ostra que estaba muy triste porque había perdido su perla. Tan triste estaba que le contó su desgracia a un pulpo que se arrastraba por el fondo del mar; el pulpo se la contó a una sardina; la sardina se la contó a un cangrejo; y el cangrejo se la contó a un ratón que estaba merodeando por la playa.",
		"specialWords": [{
			"wordInText": "merodeando",
			"genericWord": "Merodear",
			"description": "Andar por algún lugar curioseando o buscando algo."
		}, {
			"wordInText": "sardina;",
			"genericWord": "Sardina",
			"description": "Pez pequeño, azul y plateado."
		}, {
			"wordInText": "desgracia",
			"genericWord": "Desgracia",
			"description": "Mala suerte. Situación de infelicidad."
		}],
		"audio": "1text"
	}, {
		"pageType": 1,
		"text": "—Pobre ostra. Voy a ver si encuentro algo que pueda sustituir a la perla que ha perdido —dijo el ratón. —Tiene que ser algo blanco, pequeño, duro y brillante —le indicó el cangrejo y el ratón se puso a buscar. Al poco tiempo, encontró un botón que era blanco, brillante y pequeño... pero no era duro, pues lo podía roer con facilidad con sus dientecillos.",
		"specialWords": [{
			"wordInText": "sustituir",
			"genericWord": "Sustituir",
			"description": "Ocupar el lugar de otra cosa o persona."
		}, {
			"wordInText": "roer",
			"genericWord": "Roer",
			"description": "Usar los dientes para desgastar o romper algo."
		}],
		"audio": "2text"
	}, {
		"pageType": 5,
		"image": "",
		"text": "Después encontró una piedrecita blanca, pequeña y dura, pero no era brillante. También halló una moneda de plata blanca, dura y brillante, pero no era pequeña. Ya desesperanzado, el ratón entró en una casa donde había un niño al que se le había caído un diente de leche. El niño lo había dejado sobre su mesita de luz. Al ver el diente, el ratón se acercó y comprobó que era blanco, pequeño, duro y brillante.",
		"hint": ["comprobó que era blanco, pequeño, duro y brillante."],
		"specialWords": [{
			"wordInText": "desesperanzado,",
			"genericWord": "Desesperanzado",
			"description": "Que no tiene esperanza de que las cosas salgan bien."
		}],
		"question": "¿Qué estaba buscando el ratón?",
		"options": [{
			"isCorrect": true,
			"text": "Algo blanco, pequeño, duro y brillante"
		}, {
			"isCorrect": false,
			"text": "Una moneda dura"
		}, {
			"isCorrect": false,
			"text": "Un diente blanco y pequeño"
		}],
		"audio": "3text"
	}, {
		"pageType": 5,
		"image": "",
		"text": "—¡Esto sí servirá! —pensó el ratón. En silencio, recogió el diente de leche y a cambio le dejó al niño la moneda de plata. Luego volvió corriendo a la playa y le dio el diente al cangrejo, que se lo dio a la sardina, que se lo entregó al pulpo, que se lo llevó a la ostra.",
		"hint": ["En silencio, recogió el diente de leche y a cambio le dejó al niño la moneda de plata."],
		"specialWords": [],
		"question": "¿Qué dejó a cambio del diente?",
		"options": [{
			"isCorrect": true,
			"text": "Una moneda de plata"
		}, {
			"isCorrect": false,
			"text": "Un botón blanco"
		}, {
			"isCorrect": false,
			"text": "Un diente de leche"
		}],
		"audio": "4text"
	}, {
		"pageType": 3,
		"image": "Perla 02"
	}, {
		"pageType": 5,
		"image": "",
		"text": "Entonces la ostra miró el diente y... ¡se puso contentísima!, pues aquel diente de leche era del mismo tamaño que la perla que había perdido. Así que lo puso en el sitio de la perla y nadie pudo notar la diferencia.",
		"hint": ["Así que lo puso en el sitio de la perla y nadie pudo notar la diferencia."],
		"specialWords": [],
		"question": "¿Qué hizo la ostra con el diente?",
		"options": [{
			"isCorrect": true,
			"text": "Lo usó para reemplazar su perla"
		}, {
			"isCorrect": false,
			"text": "Se lo devolvió al nene"
		}, {
			"isCorrect": false,
			"text": "Lo vendió por una perla"
		}],
		"audio": "6text"
	}, {
        "pageType": 2,
        "image": "Perla 03",
		"text": "Por eso, desde entonces, cuando a un niño se le cae un diente de leche, lo pone debajo de la almohada. Por la noche un ratón se lo lleva y le deja a cambio un regalo, aunque no siempre es una moneda de plata. Luego, el ratón lleva el diente a la playa y se lo da a un cangrejo, para que se lo dé a una sardina, para que se lo entregue a un pulpo, para que se lo lleve a una ostra que haya perdido su perla.",
		"specialWords": []
	}, {
		"pageType": 5,
		"image": "",
		"text": "Finalmente, estaban todos muy contentos. El niño se levantó y encontró una moneda de plata y, sumado a sus ahorros, se pudo comprar el juguete que tanto quería. La ostra estaba muy feliz de tener al diente en reemplazo de su perla. El pulpo, la sardina y el cangrejo estaban muy contentos por haber ayudado a que todo salga bien. Y el ratón, también muy feliz, siguió cumpliendo con su trabajo de buscar los dientes de los niños por mucho tiempo más.",
		"hint": ["Y el ratón, también muy feliz, siguió cumpliendo con su trabajo de buscar los dientes de los niños por mucho tiempo más."],
		"specialWords": [],
		"question": "¿Cómo llamarías al ratón de la historia?",
		"options": [{
			"isCorrect": true,
			"text": "El ratón de los dientes"
		}, {
			"isCorrect": false,
			"text": "El ratón mentiroso"
		}, {
			"isCorrect": false,
			"text": "El ratón alegre"
		}]
	}],
	"id": 15,
	"genres": [1]
}

