{
	"title": "La serpiente blanca",
	"assetBundle": "serpienteblanca_spanish",
	"level": 5,
	"description": "Un sirviente prueba la comida secreta del rey y, a partir de ese momento, nada sería igual.",
    "author": "Anónimo",
	"illustrator": {
	    "firstname": "OX",
	    "lastname": "",
	    "contactForms": [ "", "" ]
	},
	"estimatedTime": "30", 
	"pages": [{
		"pageType": 0,
		"image": "Serpiente 00"
	}, {
		"pageType": 5,
		"image": "",
		"text": "Hace mucho tiempo vivía un rey muy famoso en todos lados por su sabiduría. Nada le era oculto; se decía que le llegaban por el aire noticias de las cosas más recónditas y secretas. Tenía, empero, una singular costumbre. Cada mediodía, una vez retirada la mesa y cuando nadie se hallaba presente, un criado de confianza le servía un plato más. Estaba tapado y nadie sabía lo que contenía, ni el mismo sirviente, pues el rey no lo descubría ni comía de él hasta encontrarse completamente solo.",
		"hint": ["Hace mucho tiempo vivía un rey muy famoso en todos lados por su sabiduría. Nada le era oculto; se decía que le llegaban por el aire noticias de las cosas más recónditas y secretas."],
		"specialWords": [{
			"wordInText": "empero,",
			"genericWord": "Empero",
			"description": "Sin embargo."
		},
		{
			"wordInText": "criado",
			"genericWord": "Criado",
			"description": "Sirviente."
		},
		{
			"wordInText": "recónditas",
			"genericWord": "Recóndito",
			"description": "Muy escondido, reservado y oculto."
		}],
		"question": "¿Qué tipo de rey era?",
		"options": [{
			"isCorrect": true,
			"text": "Uno muy sabio"
		}, {
			"isCorrect": false,
			"text": "Uno muy egoísta"
		}, {
			"isCorrect": false,
			"text": "Uno muy glotón"
		}],
		"audio": "1text"
	}, 
	{
		"pageType": 5,
		"image": "",
		"text": "Las cosas siguieron así durante mucho tiempo, hasta que un día al criado le agarró una curiosidad irresistible y se llevó la fuente a su habitación. Habiendo cerrado la puerta, con mucho cuidado levantó la tapadera y vio que en la bandeja había una serpiente blanca. No pudo reprimir el antojo de probarla; cortó un pedacito y se lo llevó a la boca. Apenas lo tocó con la lengua, oyó un extraño susurro de melódicas voces que venía de la ventana; al acercarse y prestar oído, observó que eran gorriones que hablaban entre sí, contándose mil cosas que habían visto en los campos y bosques. Al comer aquel pedacito de serpiente, había recibido el don de entender el lenguaje de los animales.",
		"hint": ["Al comer aquel pedacito de serpiente, había recibido el don de entender el lenguaje de los animales."],
        "specialWords": [
            {
                "wordInText": "tapadera",
                "genericWord": "Tapadera",
                "description": "Pieza con que se cubre un recipiente."
            },
            {
			"wordInText": "reprimir",
			"genericWord": "Reprimir",
			"description": "Contener. Moderar. Detener."
		}
        ],
		"question": "¿Por qué era el rey un hombre sabio que sabía todo lo que sucedía?",
		"options": [{
			"isCorrect": true,
			"text": "Porque podía entender lo que decían los animales"
		}, {
			"isCorrect": false,
			"text": "Porque era muy viejo y entendía todo"
		}, {
			"isCorrect": false,
			"text": "Porque sabía cómo comer una serpiente"
		}],
		"audio": "2text"
	},
	 {
		"pageType": 2,
		"image": "Serpiente 01",
		"text": "Sucedió que aquel mismo día se extravió la sortija más hermosa de la reina, y la sospecha recayó sobre el fiel sirviente que tenía acceso a todas las habitaciones. El rey le mandó comparecer a su presencia, y, en los términos más duros, lo amenazó con que, si para el día siguiente no lograba descubrir al ladrón, se le tomaría por tal y sería ajusticiado. De nada le sirvió al criado protestar por su inocencia, y el rey lo hizo salir sin retirar su amenaza.",
		"specialWords": [{
			"wordInText": "ajusticiado.",
			"genericWord": "Ajusticiar",
			"description": "Matar a una persona."
		},
		{
			"wordInText": "comparecer",
			"genericWord": "Comparecer",
			"description": "Acción mediante la cual una persona se presenta en un lugar."
		},
            {
                "wordInText": "extravió",
                "genericWord": "Extraviar",
                "description": "Perder algo, o no saber u olvidar dónde se encuentra."
            }
            ,
		{
			"wordInText": "sortija",
			"genericWord": "Sortija",
			"description": "Anillo."
		}
		],
		"audio": "3text"
	}, {
		"pageType": 1,
		"text": "Lleno de temor y congoja, bajó al patio, cavilando sobre la manera de salir del apuro. Al poco rato observó que tres patos se entretenían tranquilamente en el arroyo, alisándose las plumas con el pico y sosteniendo una conversación. El criado se detuvo a escucharlos. Se relataban dónde habían pasado la mañana y lo que habían encontrado para comer. Uno de ellos dijo malhumorado: —Siento un peso en el estómago; con el apuro que tenía me he tragado una sortija que estaba al pie de la ventana de la reina—. Sin pensarlo más, el criado lo agarró por el cuello, lo llevó a la cocina y dijo al cocinero: —Mata a éste, que ya está bastante cebado. —Es cierto —asintió el cocinero pesándolo con la mano—, ha engordado bastante y ya está pidiendo que lo pongan en el asador.",
		"specialWords": [
		{
			"wordInText": "congoja,",
			"genericWord": "Congoja",
			"description": "Angustia o tristeza."
		},
		{
			"wordInText": "cavilando",
			"genericWord": "Cavilar",
			"description": "Reflexionar con preocupación."
		}, {
			"wordInText": "cebado.",
			"genericWord": "Cebar",
			"description": "Engordar a un animal, especialmente cuando se desea comer su carne."
		}],
		"audio": "4text"
	},  {
		"pageType": 5,
		"image": "",
		"text": "El cocinero le cortó el cuello y, al vaciarlo, apareció en su estómago el anillo de la reina. Le fue fácil al criado probar al rey su inocencia, y, queriendo éste reparar su injusticia, le ofreció a su sirviente la gracia que eligiera, prometiendo darle el cargo que más quisiera en su corte.",
		"hint": ["Le fue fácil al criado probar al rey su inocencia, y, queriendo éste reparar su injusticia,"],
		"specialWords": [
            {
                "wordInText": "gracia",
                "genericWord": "Gracia",
                "description": "Favor."
            },
            {
			"wordInText": "corte.",
			"genericWord": "Corte",
			"description": "Conjunto de todas las personas que componen la familia y el acompañamiento habitual del rey."
		}
		],
		"question": "¿Cuál fue la injusticia del rey?",
		"options": [{
			"isCorrect": true,
			"text": "Acusar al criado de robar el anillo de la reina"
		}, {
			"isCorrect": false,
			"text": "No compartir su habilidad con el sirviente"
		}, {
			"isCorrect": false,
			"text": "Cortarle el cuello al pato"
		}],
		"audio": "6text"
	}, {
		"pageType": 5,
		"image": "",
		"text": "El criado declinó este honor y se limitó a pedir un caballo y dinero para un viaje, pues deseaba ver el mundo y pasar un tiempo recorriéndolo. Otorgada su petición, se puso en camino y un buen día llegó junto a un estanque, donde observó que tres peces habían quedado presos entre las cañas y pugnaban, jadeantes, por volver al agua. Digan lo que digan de que los peces son mudos, lo cierto es que el hombre entendió muy bien las quejas de aquellos animales, que se lamentaban por verse condenados a una muerte tan miserable. Como era de corazón compasivo, desmontó del caballo y devolvió los tres peces al agua.",
		"hint": ["Como era de corazón compasivo, desmontó del caballo y devolvió los tres peces al agua."],
		"specialWords": [{
			"wordInText": "declinó",
			"genericWord": "Declinar",
			"description": "Rechazar la oferta."
		}, {
			"wordInText": "pugnaban,",
			"genericWord": "Pugnar",
			"description": "Pelear con fuerza."
		}, 
		{
			"wordInText": "jadeantes,",
			"genericWord": "Jadear",
			"description": "Respirar con dificultad, generalmente por efecto del cansancio."
		}],
		"question": "¿Qué hizo el hombre con los peces?",
		"options": [{
			"isCorrect": true,
			"text": "Los devolvió al agua"
		}, {
			"isCorrect": false,
			"text": "Decidió comérselos"
		}, {
			"isCorrect": false,
			"text": "Entabló una conversación con ellos"
		}],
		"audio": "7text"
	}, {
		"pageType": 1,
		"text": "Coleteando de alegría y asomando las cabezas, le dijeron: —Nos acordaremos de que nos salvaste la vida, y seguro tendremos alguna ocasión para pagártelo. Siguió cabalgando y, al cabo de un rato, le pareció como si percibiera una voz procedente de la arena, a sus pies. Aguzando el oído, se dio cuenta que era un rey de hormigas el que se quejaba: —¡Si al menos esos hombres, con sus torpes animales, nos dejaran tranquilas! Este caballo estúpido, con sus pesados cascos, está aplastando sin compasión a mi gente—. El jinete torció hacia un camino que seguía al lado, y el rey de las hormigas le gritó: —¡Nos acordaremos y te lo recompensaremos!",
		"specialWords": [{
			"wordInText": "Coleteando",
			"genericWord": "Coletear",
			"description": "Dar golpes con la cola."
		},{
			"wordInText": "procedente",
			"genericWord": "Proceder",
			"description": "Venir desde algún lugar."
		},{
			"wordInText": "Aguzando",
			"genericWord": "Aguzar",
			"description": "Prestar especial atención a un sentido."
		}],
		"audio": "8text"
	}, {
		"pageType": 3,
		"image": "Serpiente 02"
	}, {
		"pageType": 5,
		"image": "",
		"text": "La ruta lo condujo a un bosque, y allí vio una pareja de cuervos que, al borde de su nido, arrojaban de él a sus hijos: —¡Fuera de aquí, truhanes! —les gritaban. —No podemos seguir alimentándolos; ya tienen edad para buscarse pitanza —decían. Los pobres pequeñuelos estaban en el suelo, agitando sus débiles alitas y lloriqueando: —¿Cómo vamos a conseguirnos la comida si todavía no sabemos volar? ¿Qué vamos a hacer?—. El criado bajó de su caballo y lo mató de un sablazo. Dejó su cuerpo para alimentar a los pequeños cuervos, los cuales se lanzaron sobre la presa y, una vez satisfechos, le dijeron a su bienhechor: —¡Nos acordaremos y te lo pagaremos!",
		"hint": ["El criado bajó de su caballo y lo mató de un sablazo. Dejó su cuerpo para alimentar a los pequeños cuervos, los cuales se lanzaron sobre la presa"],
		"specialWords": [{
			"wordInText": "truhanes!",
			"genericWord": "Truhán",
			"description": "Alguien que no tiene vergüenza y que vive engañando y estafando a los demás."
			},
			{
			"wordInText": "pitanza",
			"genericWord": "Pitanza",
			"description": "Alimento cotidiano."
			},
			
			{
			"wordInText": "bienhechor:",
			"genericWord": "Bienhechor",
			"description": "Que hace el bien."
			}],
		"question": "¿Qué hizo el hombre por los cuervos?",
		"options": [{
			"isCorrect": true,
			"text": "Les dio de comer"
		}, {
			"isCorrect": false,
			"text": "Los echó de su casa"
		}, {
			"isCorrect": false,
			"text": "Los mató para comerlos"
		}],
		"audio": "10text"
	}, {
		"pageType": 5,
        "specialWords": [
            {
                "wordInText": "perecido",
                "genericWord": "Perecer",
                "description": "Morir. Fallecer."
            },
            {
			"wordInText": "pregonero",
			"genericWord": "Pregonero",
			"description": "Empleado que se encargaba de leer públicamente los decretos del rey."
		}
        ],
		"hint":["Eran muchos los que lo habían intentado ya, pero habían perecido en el intento."],
		"text": "El criado tuvo que continuar su ruta a pie, y, al cabo de muchas horas, llegó a una gran ciudad. Las calles estaban llenas de gente y se observaba una gran excitación; en esto apareció un pregonero montado a caballo, haciendo saber que la hija del rey buscaba esposo. Quien se atreviera a pretenderla debía, sin embargo, realizar una difícil hazaña. Si la cumplía recibiría la mano de la princesa; pero si fracasaba, perdería la vida. Eran muchos los que lo habían intentado ya, pero habían perecido en el intento.",
		"question": "¿De qué se enteró el criado al llegar a la ciudad?",
		"options": [{
			"isCorrect": true,
			"text": "De que la princesa buscaba esposo"
		}, {
			"isCorrect": false,
			"text": "De que la princesa era peligrosa porque los hombres perdían la vida"
		}, {
			"isCorrect": false,
			"text": "De que todos los hombres debían cumplir con la hazaña"
		}],
		
		"audio": "12text"
	}, {
		"pageType": 5,
		"image": "",
		"text": "El joven fue a donde estaba la princesa, la vio y quedó tan deslumbrado por su hermosura que, desafiando todo peligro, se presentó ante el rey a pedir la mano de su hija. Lo llevaron mar adentro y en su presencia arrojaron un anillo. El rey le mandó que recuperase la joya, y añadió: —Si vuelves sin ella, serás arrojado al mar para que mueras ahogado.",
		"hint": ["Lo llevaron mar adentro y en su presencia arrojaron un anillo. El rey le mandó que recuperase la joya,"],
		"specialWords": [{
			"wordInText": "deslumbrado",
			"genericWord": "Deslumbrado",
			"description":"Asombrado, encantado, fascinado."
			}],
		"question": "¿Qué debía hacer el joven para casarse con la princesa?",
		"options": [{
			"isCorrect": true,
			"text": "Recuperar el anillo que habían tirado al mar"
		}, {
			"isCorrect": false,
			"text": "Encontrar un anillo perdido desde hace años"
		}, {
			"isCorrect": false,
			"text": "Nadar en el mar desafiando todo peligro"
		}],
		"audio": "13text"
	}, {
		"pageType": 2,
		"image": "Serpiente 03",
		"text": "Todos los presentes se compadecían del muchacho, a quien dejaron solo en la playa. El joven se quedó allí, pensando en la manera de salir de su apuro. De pronto vio tres peces que se le acercaban juntos, y que no eran sino aquellos que él había salvado. Uno de ellos llevaba en la boca una caracola, que depositó en la playa, a los pies del joven. Éste la recogió para abrirla, y en su interior apareció el anillo de oro. Saltó por la alegría que tenía y corrió a llevárselo al rey, con la esperanza de que se le concediese la recompensa prometida.",
		"specialWords": [],
		"audio": "14text"
	}, {
		"pageType": 5,
		"image": "",
		"text": "Pero al saber que su pretendiente era de linaje inferior, la soberbia princesa lo rechazó, exigiéndole que realizara un nuevo trabajo. Salió al jardín y esparció entre la hierba diez sacos llenos de mijo. —Mañana, antes de que salga el sol, debes haberlo recogido todo, sin que falte ni un sólo grano —le dijo. El antiguo criado se sentó en el jardín y se puso a cavilar sobre el modo de cumplir aquel mandato. No se le ocurría nada y se puso muy triste al pensar que a la mañana siguiente sería conducido al patíbulo.",
		"hint": ["Pero al saber que su pretendiente era de linaje inferior, la soberbia princesa lo rechazó, exigiéndole que realizara un nuevo trabajo."],
		"specialWords": [{
			"wordInText": "patíbulo.",
			"genericWord": "Patíbulo",
			"description": "Lugar donde se ejecuta la pena de muerte."
		},
		{
			"wordInText": "mijo.",
			"genericWord": "Mijo",
			"description": "Grano redondo, pequeño y amarillento."
		},
		{
			"wordInText": "soberbia",
			"genericWord": "Soberbia",
			"description": "Creerse más que los demás. "
		},
		{
			"wordInText": "linaje",
			"genericWord": "Linaje",
			"description": "Ascendencia o descendencia de una familia, especialmente noble."
		}],
		"question": "¿Por qué le dio la princesa una segunda prueba?",
		"options": [{
			"isCorrect": true,
			"text": "Porque no quería casarse con él"
		}, {
			"isCorrect": false,
			"text": "Porque esa era la regla para casarse con ella"
		}, {
			"isCorrect": false,
			"text": "Porque no creía que hubiera podido realizar la primera sin ayuda"
		}],
		"audio": "15text"
	}, 
{
		"pageType": 1,
		"specialWords": [{
			"wordInText": "diligencia,",
			"genericWord": "Diligencia",
			"description": "Llevar a cabo una acción de forma ágil y eficiente."
		}],
		
		"text": "Pero cuando los primeros rayos del sol iluminaron el jardín... ¡Qué era aquello que veía! ¡Los diez sacos estaban completamente llenos y bien alineados, sin que faltase un solo grano de mijo! Por la noche había acudido el rey de las hormigas con sus miles y miles de súbditos, y los agradecidos insectos habían recogido el mijo con gran diligencia, y lo habían depositado en los sacos. Bajó la princesa en persona al jardín y pudo ver con asombro que el joven había cumplido con la prueba.",
		"audio": "16text"
	},

	{
		"pageType": 1,
		"text": "Pero su corazón orgulloso aún no estaba satisfecho, y dijo: —Aunque haya realizado los dos trabajos, no será mi esposo hasta que me traiga una manzana del Árbol de la Vida. El pretendiente no sabía dónde crecía aquel árbol. Se puso en camino, dispuesto a no detenerse mientras lo sostuviesen las piernas, aunque no tenía esperanza alguna de encontrar lo que buscaba. Cuando había recorrido ya tres reinos, un atardecer llegó a un bosque y se tendió a dormir debajo de un árbol; de repente, oyó un rumor entre las ramas, al tiempo que una manzana de oro le caía en la mano. Un instante después bajaron volando tres cuervos, que, posándose sobre sus rodillas, le dijeron: —Somos aquellos cuervos pequeños que salvaste de morir de hambre. Cuando, ya crecidos, supimos que andabas en busca de la manzana de oro, cruzamos el mar volando y llegamos hasta el fin del mundo, donde crece el Árbol de la Vida, para traerte la fruta.",
		"specialWords": [],
		"audio": "16text"
	}, {
		"pageType": 5,
		"hint":["Partieron la manzana de la vida y se la comieron juntos. Entonces se encendió en el corazón de la doncella un gran amor por su prometido, y vivieron felices para siempre."],
		"text": "Loco de contento, emprendió el camino de regreso para llevar la manzana de oro a la princesa, la cual no puso más excusas. Partieron la manzana de la vida y se la comieron juntos. Entonces se encendió en el corazón de la doncella un gran amor por su prometido, y vivieron felices para siempre.",
		"question": "¿Qué produjo la Manzana de la Vida en la princesa?",
		"specialWords": [],
		"options": [{
			"isCorrect": true,
			"text": "Un gran amor por el joven"
		}, {
			"isCorrect": false,
			"text": "La vida eterna"
		}, {
			"isCorrect": false,
			"text": "Ella también pudo hablar con animales"
		}],
		
		"audio": "18text"
	}, {
		"pageType": 4,
		"objectiveWords": [ {
			"word": "SERPIENTE",
			"question": "El hombre comió un poco de ____ blanca.",
			"orientation": "horizontal",
			"initialPoint": {
				"x": 0,
				"y": 1
			}
		}, {
			"word": "PEZ",
			"question": "El primer animal que se cruzó el hombre durante su viaje.",
			"orientation": "vertical",
			"initialPoint": {
				"x": 0,
				"y": 2
			}
		}, {
			"word": "HORMIGA",
			"question": "El segundo animal que se cruzó el hombre durante su viaje.",
			"orientation": "horizontal",
			"initialPoint": {
				"x": 2,
				"y": 2
			}
		}, {
			"word": "CUERVO",
			"question": "El tercer animal que se cruzó el hombre durante su viaje.",
			"orientation": "horizontal",
			"initialPoint": {
				"x": 1,
				"y": 5
			}
		}, {
			"word": "ANILLO",
			"question": "Objeto que debió buscar el hombre debajo del mar.",
			"orientation": "vertical",
			"initialPoint": {
				"x": 6,
				"y": 0
			}
		}, {
			"word": "GRANOS",
			"question": "Lo que debía juntar el hombre en su segunda hazaña. Plural.",
			"orientation": "vertical",
			"initialPoint": {
				"x": 9,
				"y": 0
			}
		}, {
			"word": "MANZANA",
			"question": "El fruto del Árbol de la Vida.",
			"orientation": "horizontal",
			"initialPoint": {
				"x": 2,
				"y": 0
			}
		}]
	}],
	"id": 28,
	"genres": [4]
}


