{
    "title": "Little Red Riding Hood",
	"assetBundle": "littleredridinghood_english",
    "level": 2,
	"language":  1,
    "description": "An innocent girl decides to visit her sick grandmother and learns an important lesson on the way.",
    "author": "Charles Perrault",
    "illustrator": {
        "firstname": "OX",
        "lastname": "",
        "contactForms": [ "", "" ]
    },
    "estimatedTime": "30", 
	"resourcesFolder": "caperucita roja",
    "pages": [
        {
		    "pageId":0,
            "pageType": 0,
            "image": "Caperucita 00"
        },
        {
		    "pageId":1,
            "pageType": 5,
            "text": "One day, Little Red Riding Hood’s mother said to her, “Your grandmother is sick and seeing you would make her feel better. Take this basket of goodies to her cottage, but don’t talk to strangers on the way!” Promising not to, Little Red Riding Hood skipped off.",
            "specialWords": [
			{
                    "wordInText": "goodies",
                    "genericWord": "Goody",
                    "description":  "Something that causes delight or happiness (e.g chocolate, cake, a present)."   
                },
				{
                    "wordInText": "cottage,",
                    "genericWord": "Cottage",
                    "description":  "Small house, usually made of wood."   
                }
			],
            "audio": "ingles/littleredriddinghood1",
			"hint": [
                "Take this basket of goodies to her cottage, but don’t talk to strangers on the way!” Promising not to, Little Red Riding Hood skipped off."
            ],
			"question": "What had Little Red Riding Hood promised?",
            "options": [
                {
                    "isCorrect": true,
                    "text": "She promised not to talk to strangers"
                },
                {
                    "isCorrect": false,
                    "text": "She promised to take the basket to the cottage"
                },
                {
                    "isCorrect": false,
                    "text": "She promised she would hurry to see her grandmother"
                }
            ]
        },
       
        {
		    "pageId":2,
            "pageType": 2,
            "image": "Caperucita 01",
            "text": "On her way, she found some beautiful flowers and decided to stop and pick some for her grandmother. What she didn't know was that behind some bushes, the Big Bad Wolf was spying. He asked her, “Where are you going, little girl?” Ignoring her mother's words she answered smiling, “To my grandma’s, Mr. Wolf!”",
            "specialWords": [
			{
                    "wordInText": "spying.",
                    "genericWord": "To spy",
                    "description":  "To watch secretly without being noticed."   
                }
			],
            "audio": "ingles/littleredriddinghood2"
        },
        {
		    "pageId":3,
            "pageType": 5,
            "image": "",
            "text": "Smiling back, The Big Bad Wolf told Little Red Riding Hood she would find some pretty flowers if she took a different road. After their departure, the wolf ran to her grandmother’s cottage faster than Little Red Riding Hood, and knocked on the door. When Grandma opened the door, he locked her up in the cupboard. The wicked wolf then put on Grandma’s clothes and lay on her bed, waiting for Little Red Riding Hood.",
            "hint": ["When Grandma opened the door, he locked her up in the cupboard."
            ],
            "specialWords": [
                {
                    "wordInText": "wicked",
                    "genericWord": "Wicked",
                    "description":  "Bad, evil, with bad intentions."   
                }
            ],
            "question": "What did the Big Bad Wolf do?",
            "options": [
                {
                    "isCorrect": true,
                    "text": "Locked the grandmother in a cupboard"
                },
                {
                    "isCorrect": false,
                    "text": "Eat the grandmother"
                },
                {
                    "isCorrect": false,
                    "text": "Scared her off to the woods"
                }
            ],
            "audio": "ingles/littleredriddinghood3"
        },
		{
		    "pageId":4,
            "pageType": 1,
            "text": "When Little Red Riding Hood reached the cottage, she entered and went to Grandma’s bedside. “My! What big eyes you have, Grandma!” she said in surprise. “All the better to see you with, my dear!” replied the wolf.",
			"specialWords": [],
			"audio": "ingles/littleredriddinghood4"
		},
        {
		    "pageId":5,
            "pageType": 3,
            "image": "Caperucita 02"
        },
        {
		    "pageId":6,

            "pageType": 5,
            "image": "",
            "text": "“My! What big ears you have, Grandma!” said Little Red Riding Hood. “All the better to hear you with, my dear!” said the wolf. “What big teeth you have, Grandma!” said Little Red Riding Hood. “All the better to eat you with!” growled the wolf pouncing on her.",
            "hint": ["“All the better to eat you with!” growled the wolf pouncing on her."],
            "specialWords": [
			{
                    "wordInText": "growled",
                    "genericWord": "Growl",
                    "description":  "To make a deep threatening angry sound."   
                },
				{
                    "wordInText": "pouncing",
                    "genericWord": "Pounce",
                    "description":  "To make a sudden approach. To jump on."   
                }
				],
            "question": "What was the wolf’s plan?",
            "options": [
                {
                    "isCorrect": true,
                    "text": "To eat Little Red Riding Hood"
                },
                {
                    "isCorrect": false,
                    "text": "To scare Little Red Riding Hood"
                },
                {
                    "isCorrect": false,
                    "text": "To teach Little Red Riding Hood a lesson"
                }
            ],
            "audio": "ingles/littleredriddinghood5"
        },
        {
		    "pageId":7,
            "pageType": 5,
            "image": "",
            "text": "A woodcutter in the forest heard Little Red Riding Hood’s screams and ran to the cottage. He beat the Big Bad Wolf and rescued Grandma from the cupboard. Grandma hugged Little Red Riding Hood with joy. The Big Bad Wolf ran away never to be seen again. Little Red Riding Hood had learnt her lesson and never spoke to strangers again.",
            "hint": ["Little Red Riding Hood had learnt her lesson and never spoke to strangers again."
            ],
            "specialWords": [],
            "question": "What did Little Red Riding Hood learned?",
            "options": [
                {
                    "isCorrect": true,
                    "text": "She learned not to talk to strangers"
                },
                {
                    "isCorrect": false,
                    "text": "She learned that teeth are made for eating little girls"
                },
                {
                    "isCorrect": false,
                    "text": "She learned how to fight dangerous animals"
                }
            ],
            "audio": "ingles/littleredriddinghood6"
        },
        {
		    "pageId":8,
            "pageType": 3,
            "image": "Caperucita 03-ingles"
        }
    ],
    "id": 40,
    "genres": [
        1,
        5
    ]
}