{
	"title": "Los tres cerditos",
			"assetBundle": "trescerditos_spanish",

	"level": 2,
	"description": "Tres hermanos deben independizarse y optan por formas distintas de hacer las cosas.",
	"genre": "Fábula",
    "author": "Anónimo",
	"illustrator": {
	    "firstname": "OX",
	    "lastname": "",
	    "contactForms": [ "", "" ]
	},
	"estimatedTime": "30", 
	"pages": [{
		"pageType": 0,
		"image": "TresCerditos 00"
	}, {
		"pageType": 5,
		"image": "",
		"text": "Tres cerditos habían crecido alegremente junto a sus papás en una cabaña en el bosque. Un día los padres decidieron que ya estaban grandes y era hora de que hicieran, cada uno, su propia casa. El primer cerdito era muy perezoso y decidió hacer una casa de paja. En pocos minutos la choza estaba hecha. Y, entonces, se echó a dormir.",
		"hint": ["El primer cerdito era muy perezoso y decidió hacer una casa de paja. En pocos minutos la choza estaba hecha. Y, entonces, se echó a dormir."],
		"specialWords": [{
			"wordInText": "perezoso",
			"genericWord": "Perezoso",
			"description": "Que tiene pocas ganas de hacer algo que implique esfuerzo."
		}, {
			"wordInText": "choza",
			"genericWord": "Choza",
			"description": "Casa hecha con materiales de mala calidad."
		}],
		"question": "¿Por qué decidió hacer una casa de paja el primer cerdito?",
		"options": [{
			"isCorrect": true,
			"text": "Porque no quería esforzarse"
		}, {
			"isCorrect": false,
			"text": "Porque quería comer"
		}, {
			"isCorrect": true,
			"text": "Porque quería irse a dormir"
		}, {
			"isCorrect": false,
			"text": "Porque le gustaba trabajar"
		}],
		"audio": "1text"
	}, {
		"pageType": 1,
		"text": "El segundo decidió hacer una cabaña de madera y, como era glotón, se apresuró en terminarla para poder echarse a comer manzanas. El tercer cerdito era muy trabajador. Él eligió hacer una casa de ladrillos y cemento, mucho más resistente que las otras.",
		"specialWords": [{
			"wordInText": "glotón,",
			"genericWord": "Glotón",
			"description": "Persona que come mucho."
		}],
		"audio": "2text"
	}, {
		"pageType": 5,
		"image": "",
		"text": "Después de un día de mucho trabajo, la casa del tercer cerdito quedó terminada y se echó a descansar. Llegada la noche, se empezaron a oír los aullidos de un lobo que vivía en el bosque. Los cerditos, asustados, se encerraron en sus casas.  El lobo, hambriento, se dirigió a la primera casa y dijo: -¡Ábreme la puerta! ¡ábreme la puerta o soplaré y tu casa tiraré!",
		"hint": ["El lobo, hambriento, se dirigió a la primera casa"],
		"specialWords": [{
			"wordInText": "aullidos",
			"genericWord": "Aullido",
			"description": "Sonido que producen los lobos."
		}],
		"question": "¿Qué quiere hacer el lobo?",
		"options": [{
			"isCorrect": true,
			"text": "Comerse a los cerditos"
		}, {
			"isCorrect": false,
			"text": "Vivir dentro de sus casas"
		}, {
			"isCorrect": false,
			"text": "Tiene miedo y quiere entrar"
		}],
		"audio": "3text"
	}, {
		"pageType": 2,
		"image": "TresCerditos 01",
		"text": "Como el cerdito no la abrió, el lobo sopló y sopló. Al instante derrumbó la casa de paja. El cerdito, temblando de miedo, salió corriendo hacia la casa de madera de su hermano. El lobo lo siguió.",
		"specialWords": [],
		"audio": "4text"
	}, {
		"pageType": 5,
		"image": "",
		"text": "Delante de la segunda casa, el lobo llamó a la puerta y dijo: -¡Ábreme la puerta! ¡ábreme la puerta o soplaré y tu casa tiraré!-. Pero el segundo cerdito no la abrió y el lobo sopló y sopló. La cabaña de madera se fue por los aires y, asustados, los dos cerditos corrieron y entraron en la casa de ladrillos de su hermano.",
		"hint": ["el lobo sopló y sopló. La cabaña de madera se fue por los aires"],
		"specialWords": [],
		"question": "¿Qué hizo el lobo?",
		"options": [{
			"isCorrect": true,
			"text": "Sopló la casa de madera del cerdito"
		}, {
			"isCorrect": false,
			"text": "Se comió a los cerditos en la casa de madera"
		}, {
			"isCorrect": false,
			"text": "Se escapó corriendo de la casa de madera"
		}],
		"audio": "5text"
	}, {
		"pageType": 1,
		"text": "Pero como el lobo estaba decidido a comérselos, llamó a la puerta una vez más y gritó: -¡Ábreme la puerta! ¡ábreme la puerta o soplaré y soplaré y tu casa tiraré!-. -¡Sopla todo lo que quieras, pero no la abriré!- dijo el cerdito trabajador. Entonces, el lobo sopló y sopló. Sopló con todas sus fuerzas, pero la casa no se movió, pues era muy resistente. El lobo se quedó casi sin aire. Aunque estaba muy cansado por tanto soplar, trajo una escalera, subió al tejado de la casa y se deslizó por el tubo de la chimenea.",
		"specialWords": [{
			"wordInText": "chimenea.",
			"genericWord": "Chimenea",
			"description": "Tubo largo y hacia arriba por donde sale el humo. Como por ejemplo, el del fuego dentro de una casa."
		}, {
			"wordInText": "tejado",
			"genericWord": "Tejado",
			"description": "La parte de arriba de un edificio. El techo."
		}],
		"audio": "6text"
	}, {
		"pageType": 3,
		"image": "TresCerditos 02"
	}, {
		"pageType": 1,
		"text": "El lobo estaba decidido a entrar a la casa y comerse a los tres cerditos cueste lo que cueste. Pero lo que él no sabía era que los cerditos, imaginando lo que el lobo era capaz de hacer, pusieron al final de la chimenea un caldero con agua hirviendo. El lobo, al tirarse por la chimenea, acabó quemándose con el agua caliente. Dio un enorme grito y salió corriendo para nunca más volver.",
		"specialWords": [{
			"wordInText": "caldero",
			"genericWord": "Caldero",
			"description": "Recipiente grande para cocinar, con una sola asa o manija."
		}],
		"audio": "8text"
	}, {
		"pageType": 2,
		"image": "TresCerditos 03",
		"text": "Tanto el cerdito perezoso como el glotón aprendieron que sólo con el trabajo se consiguen las cosas y, habiendo aprendido esa valiosa lección, construyeron nuevas casas de ladrillos y cemento junto a la de su hermano. Así, los cerditos pudieron vivir en paz.",
		"specialWords": [],
		"audio": "9text"
	}],
	"id": 8,
	"genres": [3]
}