{
	"title": "Los pelos del oso",
		"assetBundle": "pelososo_spanish",

	"level": 5,
	"description": "Un aventurero se enfrenta a la primera prueba del rey gnomo con el objetivo de tomar el té con él.",
    "author": "OX",
	"illustrator": {
	    "firstname": "OX",
	    "lastname": "",
	    "contactForms": [ "", "" ]
	},
	"estimatedTime": "30",
    "pages": [
        {
            "pageType": 0,
            "image": "PelosOso 00"
        },
        {
            "pageType": 5,
            "text": "...Insistí e insistí, les supliqué a los soldados que me contaran sobre los desafíos. Cansado de mi insistencia, uno de ellos entró al palacio y volvió al poco rato con un gran tomo. Era el libro más grande que había visto, por supuesto hablando en proporciones de gnomo. El libro tenía más páginas de las que uno podría contar en 7 días y 7 noches.",
            "hint": [ "Cansado de mi insistencia, uno de ellos entró al palacio y volvió al poco rato con un gran tomo." ],
            "specialWords": [
                {
                    "wordInText": "tomo.",
                    "genericWord": "Tomo",
                    "description": "Obra escrita y/o ilustrada que forma parte de una colección de libros"
                },
                {
                    "wordInText": "insistencia,",
                    "genericWord": "Insistencia",
                    "description": "Solicitar o hacer hincapié en algo repetidamente."
                }
            ],
            "question": "¿Por qué decidieron los gnomos ir en busca del libro de las pruebas del rey gnomo?",
            "options": [
                {
                    "isCorrect": true,
                    "text": "Porque se cansaron de su insistencia"
                },
                {
                    "isCorrect": false,
                    "text": "Porque querían verlo fracasar"
                },
                {
                    "isCorrect": false,
                    "text": "Porque querían ayudarlo"
                }
            ],
            "audio": ""
        },
        {
            "pageType": 2,
            "image": "PelosOso 01",
            "text": "Cuando les pregunté qué contenía, ellos se miraron y me dijeron que en el mismo se encontraban todos los nombres de los humanos que habían intentado superar los desafíos pero que habían fallado en el intento.",
            "specialWords": [ ],
            "audio": ""
        },
        {
            "pageType": 5,
            "text": "Un poco desesperanzado, les pregunté cuántos hombres habían llegado al menos al quinto desafío. Algo de lo que dije les debió parecer absurdo ya que no pudieron contener la risa. Ambos se rieron sin parar hasta que, ya sin aire, recuperaron su compostura  y se secaron las lágrimas. Luego de una pausa y una sonrisa cómplice, me dijeron que no había habido hombre en la historia que siquiera hubiera superado el primero de los desafíos.",
            "hint": [ "les pregunté cuántos hombres habían llegado al menos al quinto desafío. Algo de lo que dije les debió parecer absurdo ya que no pudieron contener la risa." ],
            "specialWords": [
                {
                    "wordInText": "absurdo",
                    "genericWord": "Absurdo",
                    "description": "Pensamiento o comportamiento irracional, que no tiene sentido."
                },
                {
                    "wordInText": "compostura",
                    "genericWord": "Compostura",
                    "description": "Comportamiento medido y adecuado."
                },
                {
                    "wordInText": "cómplice,",
                    "genericWord": "Complicidad",
                    "description": "Actitud que muestran dos personas cuando comparten el conocimiento de algo oculto algo secreto."
                }
            ],
            "question": "¿De quién o de quiénes se rieron los gnomos?",
            "options": [
                {
                    "isCorrect": true,
                    "text": "De él por la pregunta que hizo"
                },
                {
                    "isCorrect": false,
                    "text": "De aquellos que no habían superado el desafío"
                },
                {
                    "isCorrect": false,
                    "text": "De ellos mismos"
                }
            ],
            "audio": ""
        },
        {
            "pageType": 1,
            "text": "Al principio sentí miedo y luego preocupación, pero finalmente me dije a mí mismo: —ésta es una oportunidad que se presenta una sola vez en la vida. No hay forma que la deje pasar—. Y, decidido, les pedí, para su sorpresa, que me leyeran el primer desafío. Incrédulos, esperaron a que insistiera y yo los complací.",
            "specialWords": [
                {
                    "wordInText": "Incrédulos,",
                    "genericWord": "Incredulidad",
                    "description": "Dificultad en creer algo. Que no pueden creer lo que sucede."
                },
                {
                    "wordInText": "complací.",
                    "genericWord": "Complacer",
                    "description": "Satisfacer, darle a alguienlo que desea."
                }
            ],
            "audio": ""
        },
        {
            "pageType": 1,
            "text": "Uno de ellos tomó el libro mientras que el otro se alistó y comenzó a leer: —Primer desafío del Rey Gnomo: los pelos del oso. Quienquiera reunirse en una cena con el rey de los gnomos, deberá traer los pelos del oso más maloso de todo el bosque—. —¡¿OSO?! —pregunté. No había forma de que yo pudiera acercarme a un oso y mucho menos robarle los pelos sin salir lastimado...",
            "specialWords": [
                {
                    "wordInText": "alistó",
                    "genericWord": "Alistar",
                    "description": "Preparar. Estar listo para hacer algo."
                }
            ],
            "audio": ""
        },
        {
            "pageType": 3,
            "image": "PelosOso 02"
        },
        {
            "pageType": 5,
            "image": "",
            "text": "Pero ése era el desafío y, aunque no me gustaba nada, les pregunté dónde podría encontrarlo. Los soldados me dieron las indicaciones de la cueva donde el oso solía pasar sus inviernos. Porque como ustedes saben, los osos comen durante el verano e hibernan durante el invierno. Eso me dio un poco de esperanza, pues podría acercarme al oso e idear un plan en función a lo que viera.",
            "hint": [ "Porque como ustedes saben, los osos comen durante el verano e hibernan durante el invierno. Eso me dio un poco de esperanza, pues podría acercarme al oso" ],
            "specialWords": [
                {
                    "wordInText": "hibernan",
                    "genericWord": "Hibernar",
                    "description": "Pasar el invierno descansando o durmiendo."
                },
                {
                    "wordInText": "idear",
                    "genericWord": "Idear",
                    "description": "Tener ideas, pensar, inventar o crear."
                }
            ],
            "question": "¿Qué podía usar Agustín a su beneficio?",
            "options": [
                {
                    "isCorrect": true,
                    "text": "Que el oso probablemente estaba durmiendo"
                },
                {
                    "isCorrect": false,
                    "text": "Que el oso ya había comido"
                },
                {
                    "isCorrect": false,
                    "text": "Que el oso iba a idear un plan en función de lo que viera"
                }
            ],
            "audio": "8text"
        },
        {
            "pageType": 5,
            "text": "Caminé durante un día completo para llegar a la cueva. Al asomarme, vi al oso más maloso durmiendo plácidamente, y al verlo tan peludo y esponjoso me pregunté por qué dirían que era tan maloso. La respuesta a mis interrogantes llegó inmediatamente con un ronquido pavoroso que me dejó sentado del miedo.",
            "specialWords": [
                {
                    "wordInText": "plácidamente,",
                    "genericWord": "Plácidamente",
                    "description": "Quieto, cómodo, tranquilo."
                },
                {
                    "wordInText": "interrogantes",
                    "genericWord": "Interrogantes",
                    "description": "Preguntas, dudas."
                },
                {
                    "wordInText": "pavoroso",
                    "genericWord": "Pavoroso",
                    "description": "Que genera miedo o provoca susto o sobresalto."
                }
            ],
            "question": "¿Cómo se dio cuenta que éste oso era maloso?",
            "options": [
                {
                    "isCorrect": true,
                    "text": "Escuchó su ronquido"
                },
                {
                    "isCorrect": false,
                    "text": "Lo vio durmiendo plácidamente"
                },
                {
                    "isCorrect": false,
                    "text": "Lo tocó y lo sintió esponjoso"
                }
            ],
            "hint": [ "La respuesta a mis interrogantes llegó inmediatamente con un ronquido pavoroso que me dejó sentado del miedo." ],
            "audio": "9text"
        },
        {
            "pageType": 2,
            "text": "Sabiendo que no había forma que el oso no se despertara cuando intentara sacarle los pelos, pensé que debía encontrar algo que lo entretuviera cuando abriera los ojos. Tan sólo necesité decirlo para darme cuenta cuál era la solución. Salí de la cueva en cuclillas y comencé a recorrer el bosque en busca del material necesario. Miré sobre los árboles y debajo de los mismos hasta que encontré lo que buscaba. ¡Un gigantesco panal de abejas!",
            "image": "PelosOso 03",
            "specialWords": [
                {
                    "wordInText": "cuclillas",
                    "genericWord": "Cuclillas",
                    "description": "Apoyar las nalgas sobre los talones. Agacharse, hacerse pequeño."
                }
            ],
            "audio": "9text"
        },

        {
            "pageType": 5,
            "text": "Usando lo que había aprendido en mis aventuras, ahumé el panal para dormir a las abejas y saqué la miel que necesitaba. No esperé a que se recuperen para salir corriendo... no quería estar cerca cuando se recuperaran. Seguí caminando por el bosque y encontré la pieza faltante. Un tronco grande, pesado y hueco. Lo até con una soga, lo arrastré hasta la cueva y lo llené de miel. Despacio y en silencio arrastré el tronco frente al oso y me escondí detrás de una roca.",
            "specialWords": [
                {
                    "wordInText": "ahumé",
                    "genericWord": "Ahumar",
                    "description": "Llenar de humo. En el caso de las abejas, ahumarlas las duerme o las pone somnolientas."
                }
            ],
            "question": "¿Qué hizo con la miel?",
            "options": [
                {
                    "isCorrect": true,
                    "text": "La metió en el tronco hueco"
                },
                {
                    "isCorrect": false,
                    "text": "La arrastró hasta la cueva"
                },
                {
                    "isCorrect": false,
                    "text": "La escondió detrás de una roca"
                }
            ],
            "hint": [ "Un tronco grande, pesado y hueco. Lo até con una soga, lo arrastré hasta la cueva y lo llené de miel." ],
            "audio": "9text"
        },

        {
            "pageType": 1,
            "text": "Agarré una rama, apunté y le di en el lomo. Instantáneamente gruñó, gritó y lanzó manotazos por los aires. Finalmente entendí no sólo lo de maloso sino también por qué nadie había logrado robarle ni un sólo pelo a este oso. Pero cuando la ira pasó, vio el tronco y comenzó a lamer la miel. Ésta era mi oportunidad.",
            "specialWords": [
                {
                    "wordInText": "lomo.",
                    "genericWord": "Lomo",
                    "description": "Parte inferior de la espalda de un animal."
                },
                {
                    "wordInText": "ira",
                    "genericWord": "Ira",
                    "description": "Enojo o enfado violento."
                }
            ],
            "audio": "9text"
        },



        {
            "pageType": 2,
            "text": "Lentamente me acerqué y con una pinza que tenía en la mano le arranqué solamente un pelo. El oso saltó dando un alarido y metió su cabeza completa en el tronco hueco. Dolorido, enojado y furioso, corrió ciego y se llevó por delante la pared de la cueva y cayó atontado.",
            "image": "PelosOso 04",
            "specialWords": [
                {
                    "wordInText": "alarido",
                    "genericWord": "Alarido",
                    "description": "Grito fuerte y lastimero."
                },
                {
                    "wordInText": "atontado.",
                    "genericWord": "Atontado",
                    "description": "Aturdido, confundido."
                }
            ],
            "audio": "9text"
        },
        {
            "pageType": 5,
            "text": "Sin tiempo que perder, corrí y con la pinza le robé 10 pelos al oso y los llevé a la aldea de los gnomos. Cuando llegué a mi destino, todavía se escuchaban los gruñidos y alaridos distantes del oso. Todos los gnomos se encontraban reunidos en la plaza. Grande fue la sorpresa que se llevaron los soldados cuando me vieron llegar con los 10 pelos en la mano. Es así cómo superé la primera prueba del rey gnomo.",
            "specialWords": [
                {
                    "wordInText": "",
                    "genericWord": "",
                    "description": ""
                }
            ],
            "question": "¿Por qué se sorprendieron los gnomos?",
            "options": [
                {
                    "isCorrect": true,
                    "text": "Porque no esperaban que superara la prueba"
                },
                {
                    "isCorrect": false,
                    "text": "Porque no tenía los pelos que prometió"
                },
                {
                    "isCorrect": false,
                    "text": "Porque no lo reconocieron y pensaron que era un impostor"
                }
            ],
            "hint": [ "Grande fue la sorpresa que se llevaron los soldados cuando me vieron llegar con los 10 pelos en la mano. Es así cómo superé la primera prueba del rey gnomo." ],
            "audio": "9text"
        }
    
    ],
	"id": 50,
	"genres": [1, 6]
}
