{
  "title": "LUPI ES LA MEJOR",
  "assetBundle": "lupi_spanish",
  "level": 0,
  "description": "¡RIVALES! LUPI ES LA MEJOR CANTANTE, LA MEJOR ALUMNA Y LA MEJOR DEPORTISTA... HASTA QUE CONOCE A TIKA.",
  "resourcesFolder":  "lupi",
    "author": "Matías Torino",
  "illustrator": {
      "firstname": "OX",
      "lastname": "",
      "contactForms": [ "", "" ]
  },
  "estimatedTime": "30", 
  "pages": [
   {
    "pageType": 0,
    "image": "Lupi 00",
    "audio": "",
    "pageId":0,
    "nextIdPage": 1
  }, {
    "pageType":3,
    "image":"Lupi 01",
    "audio": "audios/Lupi1",
    "pageId":1,
    "nextIdPage": 2

  }, {
    "pageType":3,
    "image":"Lupi 02",
    "audio": "audios/Lupi2",
    "pageId": 2,
    "nextIdPage": 103

  }, {
	"pageId":  103,
    "pageType": 7,
      "image": "Lupi Choice",
      "text": "",
      "specialWords": [],
      "options": [{
        "text": "",
        "image": "Lupi 03 A",
        "nextIdPage": 4
      }, {
        "text": "",
        "image": "Lupi 03 B",
        "nextIdPage": 5
      }, {
        "text": "",
        "image": "Lupi 03 C",
        "nextIdPage": 6
      }],
      "audio": "audios/Lupi3"
  },
  {
    "pageType":3,
    "image":"Lupi 04",
    "audio": "audios/Lupi4",
    "pageId": 4,
    "nextIdPage": 7

  },
	{
    "pageId": 5,
    "pageType": 3,
    "image": "Lupi 05",
    "audio": "audios/Lupi5",
	"nextIdPage": 7
    },
	{
      "pageType":3,
      "image":  "Lupi 06",
      "audio":  "audios/Lupi6",
      "pageId":  6,
      "nextIdPage": 7

    },
	{
      "pageType":3,
      "image":  "Lupi 07",
      "audio":  "audios/Lupi7",
      "pageId":  7,
      "nextIdPage": 8

    },
	{
      "pageType":3,
      "image":  "Lupi 08",
      "audio":  "audios/Lupi8",
      "pageId":  8,
      "nextIdPage": 9

    },
	{
      "pageType":3,
      "image":  "Lupi 09",
      "audio":  "audios/Lupi9",
      "pageId":  9,
      "nextIdPage": 110

    },
	{
      "pageType":7,
      "image":  "Lupi Choice",
      "audio":  "audios/Lupi10",
      "pageId":  110,
	  "text": "",
      "specialWords": [],
      "options": [{
        "text": "",
        "image": "Lupi 10 A",
        "nextIdPage": 11 
      }, {
        "text": "",
        "image": "Lupi 10 B",
        "nextIdPage": 12
      }
	  , {
        "text": "",
        "image": "Lupi 10 C",
        "nextIdPage": 13
      }]

    },
	{
      "pageType":3,
      "image":  "Lupi 11",
      "audio":  "audios/Lupi11",
      "pageId":  11,
      "nextIdPage": 14

    },{
      "pageType":3,
      "image":  "Lupi 12",
      "audio":  "audios/Lupi12",
      "pageId":  12,
      "nextIdPage": 14

    },{
      "pageId": 13,
      "pageType": 3,
      "image": "Lupi 13",      
      "audio": "audios/Lupi13",
	    "nextIdPage": 14
    },{
      "pageType":3,
      "image":  "Lupi 14",
      "audio":  "audios/Lupi14",
      "pageId":  14,
      "nextIdPage": 15

    },{
      "pageType":3,
      "image":  "Lupi 15",
      "audio":  "audios/Lupi15",
      "pageId":  15,
      "nextIdPage": 16

    },{
      "pageType":3,
      "image":  "Lupi 16",
      "audio":  "audios/Lupi16",
      "pageId":  16,
      "nextIdPage": 17

    }
	,{
      "pageType":3,
      "image":  "Lupi 17",
      "audio":  "audios/Lupi17",
      "pageId":  17,
      "nextIdPage": 18

    }
	
	,{
      "pageType":3,
      "image":  "Lupi 18",
      "audio":  "audios/Lupi18",
      "pageId":  18,
      "nextIdPage": 119

    },
	 {
      "pageId": 119,
      "pageType": 7,
      "image": "Lupi Choice",
      "text": "",
      "specialWords": [],
      "options": [{
        "text": "",
        "image": "Lupi 19 A",
        "nextIdPage": 20
      }, {
        "text": "",
        "image": "Lupi 19 B",
        "nextIdPage": 21
      }, {
        "text": "",
        "image": "Lupi 19 C",
        "nextIdPage": 22
      }
      
      ],
      "audio": "audios/Lupi19"
    },
  
	{
      "pageType":3,
      "image":  "Lupi 20",
      "audio":  "audios/Lupi20",
      "pageId":  20,
      "nextIdPage": 23

    },
	{
      "pageType":3,
      "image":  "Lupi 21",
      "audio":  "audios/Lupi21",
      "pageId":  21,
      "nextIdPage": 23

    },
	{
      "pageType":3,
      "image":  "Lupi 22",
      "audio":  "audios/Lupi22",
      "pageId":  22,
      "nextIdPage": 23

    },
	
	{
      "pageId": 23,
      "pageType": 3,
      "image": "Lupi 23",
	        "nextIdPage": 24,
      
      "audio": "audios/Lupi23"
    },
	{
      "pageType":3,
      "image":  "Lupi 24",
      "audio":  "audios/Lupi24",
      "pageId":  24,
      "nextIdPage": 25

    },{
      "pageType":3,
      "image":  "Lupi 25",
      "audio":  "audios/Lupi25",
      "pageId":  25,
      "nextIdPage": -1

    }   
      
  ],
  "id": 44,
  "genres": [5]
}

