{
  "title": "EL VIAJE DE YURUMÍ",
    								"assetBundle": "yurumi_spanish",

  "level": 0,
  "description": "¡ANIMALES Y MONSTRUOS! YURUMÍ, EL OSO HORMIGUERO, VIAJA A LA PATAGONIA. ¿QUÉ AVENTURAS LE ESPERAN ALLÍ?",
  "resourcesFolder":  "Yurumi",
    "author": "ANÓNIMO",
  "illustrator": {
      "firstname": "OX",
      "lastname": "",
      "contactForms": [ "", "" ]
  },
  "estimatedTime": "30", 
  "pages": [
   {
    "pageType": 0,
    "image": "Yurumi 00",
    "audio": "",
    "pageId":0,
    "nextIdPage": 1
  }, {
    "pageType":3,
    "image":"Yurumi 01",
    "audio": "audios/Yurumi0",
    "pageId":1,
    "nextIdPage": 2

  }, {
    "pageType":3,
    "image":"Yurumi 02",
    "audio": "audios/Yurumi1",
    "pageId": 2,
    "nextIdPage": 3

  }, {
    "pageType":3,
    "image":"Yurumi 03",
    "audio": "audios/Yurumi2",
    "pageId": 3,
    "nextIdPage": 4
  },
  {
    "pageType":3,
    "image":"Yurumi 04",
    "audio": "audios/Yurumi3",
    "pageId": 4,
    "nextIdPage": 105

  },
	{
      "pageId": 105,
      "pageType": 7,
      "image": "Yurumi Choice",
      "text": "",
      "specialWords": [],
      "options": [{
        "text": "",
        "image": "Yurumi 05 A",
        "nextIdPage": 6
      }, {
        "text": "",
        "image": "Yurumi 05 B",
        "nextIdPage": 7
      }, {
        "text": "",
        "image": "Yurumi 05 C",
        "nextIdPage": 8
      }],
      "audio": "audios/Yurumi4"
    },
	{
      "pageType":3,
      "image":  "Yurumi 06",
      "audio":  "audios/Yurumi5",
      "pageId":  6,
      "nextIdPage": 105

    },
	{
      "pageType":3,
      "image":  "Yurumi 07",
      "audio":  "audios/Yurumi6",
      "pageId":  7,
      "nextIdPage": 105

    },
	{
      "pageType":3,
      "image":  "Yurumi 08",
      "audio":  "audios/Yurumi7",
      "pageId":  8,
      "nextIdPage": 9

    },
	{
      "pageType":3,
      "image":  "Yurumi 09",
      "audio":  "audios/Yurumi8",
      "pageId":  9,
      "nextIdPage": 10

    },
	{
      "pageType":3,
      "image":  "Yurumi 10",
      "audio":  "audios/Yurumi9",
      "pageId":  10,
      "nextIdPage": 11

    },
	{
      "pageType":3,
      "image":  "Yurumi 11",
      "audio":  "audios/Yurumi10",
      "pageId":  11,
      "nextIdPage": 12

    },{
      "pageType":3,
      "image":  "Yurumi 12",
      "audio":  "audios/Yurumi11",
      "pageId":  12,
      "nextIdPage": 113

    },{
      "pageId": 113,
      "pageType": 7,
      "image": "Yurumi Choice",
      "text": "",
      "specialWords": [],
      "options": [{
        "text": "",
        "image": "Yurumi 13 A",
        "nextIdPage": 14 
      }, {
        "text": "",
        "image": "Yurumi 13 B",
        "nextIdPage": 15
      }],
      "audio": "audios/Yurumi12"
    },{
      "pageType":3,
      "image":  "Yurumi 14",
      "audio":  "audios/Yurumi13",
      "pageId":  14,
      "nextIdPage": 113

    },{
      "pageType":3,
      "image":  "Yurumi 15",
      "audio":  "audios/Yurumi14",
      "pageId":  15,
      "nextIdPage": 16

    },{
      "pageType":3,
      "image":  "Yurumi 16",
      "audio":  "audios/Yurumi15",
      "pageId":  16,
      "nextIdPage": 17

    }
	,{
      "pageType":3,
      "image":  "Yurumi 17",
      "audio":  "audios/Yurumi16",
      "pageId":  17,
      "nextIdPage": 18

    }
	
	,{
      "pageType":3,
      "image":  "Yurumi 18",
      "audio":  "audios/Yurumi17",
      "pageId":  18,
      "nextIdPage": 119

    },
	 {
      "pageId": 119,
      "pageType": 7,
      "image": "Yurumi Choice",
      "text": "",
      "specialWords": [],
      "options": [{
        "text": "",
        "image": "Yurumi 19 A",
        "nextIdPage": 20
      }, {
        "text": "",
        "image": "Yurumi 19 B",
        "nextIdPage": 21
      }, {
        "text": "",
        "image": "Yurumi 19 C",
        "nextIdPage": 22
      }
      
      ],
      "audio": "audios/Yurumi18"
    },
  
	{
      "pageType":3,
      "image":  "Yurumi 20",
      "audio":  "audios/Yurumi19",
      "pageId":  20,
      "nextIdPage": 123

    },
	{
      "pageType":3,
      "image":  "Yurumi 21",
      "audio":  "audios/Yurumi20",
      "pageId":  21,
      "nextIdPage": 123

    },
	{
      "pageType":3,
      "image":  "Yurumi 22",
      "audio":  "audios/Yurumi21",
      "pageId":  22,
      "nextIdPage": 123

    },
	
	{
      "pageId": 123,
      "pageType": 7,
      "image": "Yurumi Choice",
      "text": "",
      "specialWords": [],
      "options": [{
        "text": "",
        "image": "Yurumi 19 A",
        "nextIdPage": 20
      }, {
        "text": "",
        "image": "Yurumi 19 B",
        "nextIdPage": 21
      }, {
        "text": "",
        "image": "Yurumi 19 C",
        "nextIdPage": 22
      }, {
        "text": "",
        "image": "Yurumi 23 D",
        "nextIdPage": 24
      }

      ],
      "audio": "audios/Yurumi22"
    },
	{
      "pageType":3,
      "image":  "Yurumi 24",
      "audio":  "audios/Yurumi23",
      "pageId":  24,
      "nextIdPage": 25

    },{
      "pageType":3,
      "image":  "Yurumi 25",
      "audio":  "audios/Yurumi24",
      "pageId":  25,
      "nextIdPage": 26

    },{
      "pageType":3,
      "image":  "Yurumi 26",
      "audio":  "audios/Yurumi25",
      "pageId":  26,
      "nextIdPage": -1

    }    
      
  ],
  "id": 43,
  "genres": [5]
}

