%YAML 1.1
%TAG !u! tag:unity3d.com,2011:
--- !u!74 &7400000
AnimationClip:
  m_ObjectHideFlags: 0
  m_PrefabParentObject: {fileID: 0}
  m_PrefabInternal: {fileID: 0}
  m_Name: IncorrectUsername
  serializedVersion: 6
  m_Legacy: 0
  m_Compressed: 0
  m_UseHighQualityCurve: 1
  m_RotationCurves: []
  m_CompressedRotationCurves: []
  m_EulerCurves: []
  m_PositionCurves: []
  m_ScaleCurves:
  - curve:
      serializedVersion: 2
      m_Curve:
      - time: 0
        value: {x: 0, y: 0, z: 0}
        inSlope: {x: 2.88, y: 2.88, z: 0}
        outSlope: {x: 2.88, y: 2.88, z: 0}
        tangentMode: 0
      - time: 0.41666666
        value: {x: 1.2, y: 1.2, z: 0}
        inSlope: {x: 1.04, y: 1.04, z: 0}
        outSlope: {x: 1.04, y: 1.04, z: 0}
        tangentMode: 0
      - time: 0.6666667
        value: {x: 1, y: 1, z: 0}
        inSlope: {x: 0.061538607, y: 0.061538607, z: 0}
        outSlope: {x: 0.061538607, y: 0.061538607, z: 0}
        tangentMode: 0
      - time: 0.8833333
        value: {x: 1.2, y: 1.2, z: 0}
        inSlope: {x: 0.00000014901161, y: 0.00000014901161, z: 2.307692}
        outSlope: {x: 0.00000014901161, y: 0.00000014901161, z: 2.307692}
        tangentMode: 0
      - time: 1.1
        value: {x: 1, y: 1, z: 1}
        inSlope: {x: -0.923077, y: -0.923077, z: 4.615384}
        outSlope: {x: -0.923077, y: -0.923077, z: 4.615384}
        tangentMode: 0
      m_PreInfinity: 2
      m_PostInfinity: 2
      m_RotationOrder: 4
    path: 
  m_FloatCurves: []
  m_PPtrCurves: []
  m_SampleRate: 60
  m_WrapMode: 0
  m_Bounds:
    m_Center: {x: 0, y: 0, z: 0}
    m_Extent: {x: 0, y: 0, z: 0}
  m_ClipBindingConstant:
    genericBindings:
    - path: 0
      attribute: 3
      script: {fileID: 0}
      classID: 4
      customType: 0
      isPPtrCurve: 0
    pptrCurveMapping: []
  m_AnimationClipSettings:
    serializedVersion: 2
    m_AdditiveReferencePoseClip: {fileID: 0}
    m_AdditiveReferencePoseTime: 0
    m_StartTime: 0
    m_StopTime: 1.1
    m_OrientationOffsetY: 0
    m_Level: 0
    m_CycleOffset: 0
    m_HasAdditiveReferencePose: 0
    m_LoopTime: 0
    m_LoopBlend: 0
    m_LoopBlendOrientation: 0
    m_LoopBlendPositionY: 0
    m_LoopBlendPositionXZ: 0
    m_KeepOriginalOrientation: 0
    m_KeepOriginalPositionY: 1
    m_KeepOriginalPositionXZ: 0
    m_HeightFromFeet: 0
    m_Mirror: 0
  m_EditorCurves:
  - curve:
      serializedVersion: 2
      m_Curve:
      - time: 0
        value: 0
        inSlope: 2.88
        outSlope: 2.88
        tangentMode: 10
      - time: 0.41666666
        value: 1.2
        inSlope: 1.04
        outSlope: 1.04
        tangentMode: 10
      - time: 0.6666667
        value: 1
        inSlope: 0.061538607
        outSlope: 0.061538607
        tangentMode: 10
      - time: 0.8833333
        value: 1.2
        inSlope: 0.00000014901161
        outSlope: 0.00000014901161
        tangentMode: 10
      - time: 1.1
        value: 1
        inSlope: -0.923077
        outSlope: -0.923077
        tangentMode: 10
      m_PreInfinity: 2
      m_PostInfinity: 2
      m_RotationOrder: 4
    attribute: m_LocalScale.x
    path: 
    classID: 224
    script: {fileID: 0}
  - curve:
      serializedVersion: 2
      m_Curve:
      - time: 0
        value: 0
        inSlope: 2.88
        outSlope: 2.88
        tangentMode: 10
      - time: 0.41666666
        value: 1.2
        inSlope: 1.04
        outSlope: 1.04
        tangentMode: 10
      - time: 0.6666667
        value: 1
        inSlope: 0.061538607
        outSlope: 0.061538607
        tangentMode: 10
      - time: 0.8833333
        value: 1.2
        inSlope: 0.00000014901161
        outSlope: 0.00000014901161
        tangentMode: 10
      - time: 1.1
        value: 1
        inSlope: -0.923077
        outSlope: -0.923077
        tangentMode: 10
      m_PreInfinity: 2
      m_PostInfinity: 2
      m_RotationOrder: 4
    attribute: m_LocalScale.y
    path: 
    classID: 224
    script: {fileID: 0}
  - curve:
      serializedVersion: 2
      m_Curve:
      - time: 0
        value: 0
        inSlope: 0
        outSlope: 0
        tangentMode: 10
      - time: 0.41666666
        value: 0
        inSlope: 0
        outSlope: 0
        tangentMode: 10
      - time: 0.6666667
        value: 0
        inSlope: 0
        outSlope: 0
        tangentMode: 10
      - time: 0.8833333
        value: 0
        inSlope: 2.307692
        outSlope: 2.307692
        tangentMode: 10
      - time: 1.1
        value: 1
        inSlope: 4.615384
        outSlope: 4.615384
        tangentMode: 10
      m_PreInfinity: 2
      m_PostInfinity: 2
      m_RotationOrder: 4
    attribute: m_LocalScale.z
    path: 
    classID: 224
    script: {fileID: 0}
  m_EulerEditorCurves: []
  m_HasGenericRootTransform: 0
  m_HasMotionFloatCurves: 0
  m_GenerateMotionCurves: 0
  m_Events:
  - time: 1.05
    functionName: OnIncorrectUserAnimationEnd
    data: 
    objectReferenceParameter: {fileID: 0}
    floatParameter: 0
    intParameter: 0
    messageOptions: 0
