%YAML 1.1
%TAG !u! tag:unity3d.com,2011:
--- !u!74 &7400000
AnimationClip:
  m_ObjectHideFlags: 0
  m_PrefabParentObject: {fileID: 0}
  m_PrefabInternal: {fileID: 0}
  m_Name: startAnimation
  serializedVersion: 6
  m_Legacy: 0
  m_Compressed: 0
  m_UseHighQualityCurve: 1
  m_RotationCurves: []
  m_CompressedRotationCurves: []
  m_EulerCurves: []
  m_PositionCurves: []
  m_ScaleCurves:
  - curve:
      serializedVersion: 2
      m_Curve:
      - time: 0.36666667
        value: {x: 0, y: 0, z: 1}
        inSlope: {x: 8.57143, y: 8.57143, z: 0}
        outSlope: {x: 8.57143, y: 8.57143, z: 0}
        tangentMode: 0
      - time: 0.48333332
        value: {x: 1, y: 1, z: 1}
        inSlope: {x: 3.1948063, y: 3.1948063, z: 0}
        outSlope: {x: 3.1948063, y: 3.1948063, z: 0}
        tangentMode: 0
      - time: 0.6666667
        value: {x: 0.6, y: 0.6, z: 1}
        inSlope: {x: 0.40909123, y: 0.40909123, z: 0}
        outSlope: {x: 0.40909123, y: 0.40909123, z: 0}
        tangentMode: 0
      - time: 0.73333335
        value: {x: 0.8, y: 0.8, z: 1}
        inSlope: {x: 3, y: 3, z: 0}
        outSlope: {x: 3, y: 3, z: 0}
        tangentMode: 0
      m_PreInfinity: 2
      m_PostInfinity: 2
      m_RotationOrder: 4
    path: whiteStartImage2/starImage2
  - curve:
      serializedVersion: 2
      m_Curve:
      - time: 0.56666666
        value: {x: 0, y: 0, z: 1}
        inSlope: {x: 9.999998, y: 9.999998, z: 0}
        outSlope: {x: 9.999998, y: 9.999998, z: 0}
        tangentMode: 0
      - time: 0.6666667
        value: {x: 1, y: 1, z: 1}
        inSlope: {x: 2.9999983, y: 2.9999983, z: 0}
        outSlope: {x: 2.9999983, y: 2.9999983, z: 0}
        tangentMode: 0
      - time: 0.76666665
        value: {x: 0.6, y: 0.6, z: 1}
        inSlope: {x: -0.5000007, y: -0.5000007, z: 0}
        outSlope: {x: -0.5000007, y: -0.5000007, z: 0}
        tangentMode: 0
      - time: 0.8333333
        value: {x: 0.8, y: 0.8, z: 1}
        inSlope: {x: 3, y: 3, z: 0}
        outSlope: {x: 3, y: 3, z: 0}
        tangentMode: 0
      m_PreInfinity: 2
      m_PostInfinity: 2
      m_RotationOrder: 4
    path: whiteStartImage3/starImage3
  - curve:
      serializedVersion: 2
      m_Curve:
      - time: 0
        value: {x: 0, y: 0, z: 1}
        inSlope: {x: 4.285714, y: 4.285714, z: 0}
        outSlope: {x: 4.285714, y: 4.285714, z: 0}
        tangentMode: 0
      - time: 0.23333333
        value: {x: 1, y: 1, z: 1}
        inSlope: {x: -1.8571429, y: -1.8571429, z: 0}
        outSlope: {x: -1.8571429, y: -1.8571429, z: 0}
        tangentMode: 0
      - time: 0.28333333
        value: {x: 0.6, y: 0.6, z: 1}
        inSlope: {x: -1.6000004, y: -1.6000004, z: 0}
        outSlope: {x: -1.6000004, y: -1.6000004, z: 0}
        tangentMode: 0
      - time: 0.36666667
        value: {x: 1, y: 1, z: 1}
        inSlope: {x: 1.7999997, y: 1.7999997, z: 0}
        outSlope: {x: 1.7999997, y: 1.7999997, z: 0}
        tangentMode: 0
      - time: 0.53333336
        value: {x: 0.8, y: 0.8, z: 1}
        inSlope: {x: -1.1999998, y: -1.1999998, z: 0}
        outSlope: {x: -1.1999998, y: -1.1999998, z: 0}
        tangentMode: 0
      m_PreInfinity: 2
      m_PostInfinity: 2
      m_RotationOrder: 4
    path: whiteStartImage1/starImage1
  m_FloatCurves: []
  m_PPtrCurves: []
  m_SampleRate: 60
  m_WrapMode: 0
  m_Bounds:
    m_Center: {x: 0, y: 0, z: 0}
    m_Extent: {x: 0, y: 0, z: 0}
  m_ClipBindingConstant:
    genericBindings:
    - path: 3268856075
      attribute: 3
      script: {fileID: 0}
      classID: 4
      customType: 0
      isPPtrCurve: 0
    - path: 779400690
      attribute: 3
      script: {fileID: 0}
      classID: 4
      customType: 0
      isPPtrCurve: 0
    - path: 742476353
      attribute: 3
      script: {fileID: 0}
      classID: 4
      customType: 0
      isPPtrCurve: 0
    pptrCurveMapping: []
  m_AnimationClipSettings:
    serializedVersion: 2
    m_AdditiveReferencePoseClip: {fileID: 0}
    m_AdditiveReferencePoseTime: 0
    m_StartTime: 0
    m_StopTime: 0.8333333
    m_OrientationOffsetY: 0
    m_Level: 0
    m_CycleOffset: 0
    m_HasAdditiveReferencePose: 0
    m_LoopTime: 0
    m_LoopBlend: 0
    m_LoopBlendOrientation: 0
    m_LoopBlendPositionY: 0
    m_LoopBlendPositionXZ: 0
    m_KeepOriginalOrientation: 0
    m_KeepOriginalPositionY: 1
    m_KeepOriginalPositionXZ: 0
    m_HeightFromFeet: 0
    m_Mirror: 0
  m_EditorCurves:
  - curve:
      serializedVersion: 2
      m_Curve:
      - time: 0.36666667
        value: 0
        inSlope: 8.57143
        outSlope: 8.57143
        tangentMode: 10
      - time: 0.48333332
        value: 1
        inSlope: 3.1948063
        outSlope: 3.1948063
        tangentMode: 10
      - time: 0.6666667
        value: 0.6
        inSlope: 0.40909123
        outSlope: 0.40909123
        tangentMode: 10
      - time: 0.73333335
        value: 0.8
        inSlope: 3
        outSlope: 3
        tangentMode: 10
      m_PreInfinity: 2
      m_PostInfinity: 2
      m_RotationOrder: 4
    attribute: m_LocalScale.x
    path: whiteStartImage2/starImage2
    classID: 224
    script: {fileID: 0}
  - curve:
      serializedVersion: 2
      m_Curve:
      - time: 0.36666667
        value: 0
        inSlope: 8.57143
        outSlope: 8.57143
        tangentMode: 10
      - time: 0.48333332
        value: 1
        inSlope: 3.1948063
        outSlope: 3.1948063
        tangentMode: 10
      - time: 0.6666667
        value: 0.6
        inSlope: 0.40909123
        outSlope: 0.40909123
        tangentMode: 10
      - time: 0.73333335
        value: 0.8
        inSlope: 3
        outSlope: 3
        tangentMode: 10
      m_PreInfinity: 2
      m_PostInfinity: 2
      m_RotationOrder: 4
    attribute: m_LocalScale.y
    path: whiteStartImage2/starImage2
    classID: 224
    script: {fileID: 0}
  - curve:
      serializedVersion: 2
      m_Curve:
      - time: 0.36666667
        value: 1
        inSlope: 0
        outSlope: 0
        tangentMode: 10
      - time: 0.48333332
        value: 1
        inSlope: 0
        outSlope: 0
        tangentMode: 10
      - time: 0.6666667
        value: 1
        inSlope: 0
        outSlope: 0
        tangentMode: 10
      - time: 0.73333335
        value: 1
        inSlope: 0
        outSlope: 0
        tangentMode: 10
      m_PreInfinity: 2
      m_PostInfinity: 2
      m_RotationOrder: 4
    attribute: m_LocalScale.z
    path: whiteStartImage2/starImage2
    classID: 224
    script: {fileID: 0}
  - curve:
      serializedVersion: 2
      m_Curve:
      - time: 0.56666666
        value: 0
        inSlope: 9.999998
        outSlope: 9.999998
        tangentMode: 10
      - time: 0.6666667
        value: 1
        inSlope: 2.9999983
        outSlope: 2.9999983
        tangentMode: 10
      - time: 0.76666665
        value: 0.6
        inSlope: -0.5000007
        outSlope: -0.5000007
        tangentMode: 10
      - time: 0.8333333
        value: 0.8
        inSlope: 3
        outSlope: 3
        tangentMode: 10
      m_PreInfinity: 2
      m_PostInfinity: 2
      m_RotationOrder: 4
    attribute: m_LocalScale.x
    path: whiteStartImage3/starImage3
    classID: 224
    script: {fileID: 0}
  - curve:
      serializedVersion: 2
      m_Curve:
      - time: 0.56666666
        value: 0
        inSlope: 9.999998
        outSlope: 9.999998
        tangentMode: 10
      - time: 0.6666667
        value: 1
        inSlope: 2.9999983
        outSlope: 2.9999983
        tangentMode: 10
      - time: 0.76666665
        value: 0.6
        inSlope: -0.5000007
        outSlope: -0.5000007
        tangentMode: 10
      - time: 0.8333333
        value: 0.8
        inSlope: 3
        outSlope: 3
        tangentMode: 10
      m_PreInfinity: 2
      m_PostInfinity: 2
      m_RotationOrder: 4
    attribute: m_LocalScale.y
    path: whiteStartImage3/starImage3
    classID: 224
    script: {fileID: 0}
  - curve:
      serializedVersion: 2
      m_Curve:
      - time: 0.56666666
        value: 1
        inSlope: 0
        outSlope: 0
        tangentMode: 10
      - time: 0.6666667
        value: 1
        inSlope: 0
        outSlope: 0
        tangentMode: 10
      - time: 0.76666665
        value: 1
        inSlope: 0
        outSlope: 0
        tangentMode: 10
      - time: 0.8333333
        value: 1
        inSlope: 0
        outSlope: 0
        tangentMode: 10
      m_PreInfinity: 2
      m_PostInfinity: 2
      m_RotationOrder: 4
    attribute: m_LocalScale.z
    path: whiteStartImage3/starImage3
    classID: 224
    script: {fileID: 0}
  - curve:
      serializedVersion: 2
      m_Curve:
      - time: 0
        value: 0
        inSlope: 4.285714
        outSlope: 4.285714
        tangentMode: 10
      - time: 0.23333333
        value: 1
        inSlope: -1.8571429
        outSlope: -1.8571429
        tangentMode: 10
      - time: 0.28333333
        value: 0.6
        inSlope: -1.6000004
        outSlope: -1.6000004
        tangentMode: 10
      - time: 0.36666667
        value: 1
        inSlope: 1.7999997
        outSlope: 1.7999997
        tangentMode: 10
      - time: 0.53333336
        value: 0.8
        inSlope: -1.1999998
        outSlope: -1.1999998
        tangentMode: 10
      m_PreInfinity: 2
      m_PostInfinity: 2
      m_RotationOrder: 4
    attribute: m_LocalScale.x
    path: whiteStartImage1/starImage1
    classID: 224
    script: {fileID: 0}
  - curve:
      serializedVersion: 2
      m_Curve:
      - time: 0
        value: 0
        inSlope: 4.285714
        outSlope: 4.285714
        tangentMode: 10
      - time: 0.23333333
        value: 1
        inSlope: -1.8571429
        outSlope: -1.8571429
        tangentMode: 10
      - time: 0.28333333
        value: 0.6
        inSlope: -1.6000004
        outSlope: -1.6000004
        tangentMode: 10
      - time: 0.36666667
        value: 1
        inSlope: 1.7999997
        outSlope: 1.7999997
        tangentMode: 10
      - time: 0.53333336
        value: 0.8
        inSlope: -1.1999998
        outSlope: -1.1999998
        tangentMode: 10
      m_PreInfinity: 2
      m_PostInfinity: 2
      m_RotationOrder: 4
    attribute: m_LocalScale.y
    path: whiteStartImage1/starImage1
    classID: 224
    script: {fileID: 0}
  - curve:
      serializedVersion: 2
      m_Curve:
      - time: 0
        value: 1
        inSlope: 0
        outSlope: 0
        tangentMode: 10
      - time: 0.23333333
        value: 1
        inSlope: 0
        outSlope: 0
        tangentMode: 10
      - time: 0.28333333
        value: 1
        inSlope: 0
        outSlope: 0
        tangentMode: 10
      - time: 0.36666667
        value: 1
        inSlope: 0
        outSlope: 0
        tangentMode: 10
      - time: 0.53333336
        value: 1
        inSlope: 0
        outSlope: 0
        tangentMode: 10
      m_PreInfinity: 2
      m_PostInfinity: 2
      m_RotationOrder: 4
    attribute: m_LocalScale.z
    path: whiteStartImage1/starImage1
    classID: 224
    script: {fileID: 0}
  m_EulerEditorCurves: []
  m_HasGenericRootTransform: 0
  m_HasMotionFloatCurves: 0
  m_GenerateMotionCurves: 0
  m_Events: []
